Computer Organization/Lab1/sim.vcd
$date
	Wed Apr 12 01:29:57 2023
$end
$version
	Icarus Verilog
$end
$timescale
	10ps
$end
$scope module riscv_tb $end
$var reg 1 ! clk $end
$var reg 1 " rstn $end
$var integer 32 # i [31:0] $end
$scope module my_cpu $end
$var wire 32 $ alu_in1 [31:0] $end
$var wire 1 ! clk $end
$var wire 32 % instruction [31:0] $end
$var wire 1 " rstn $end
$var wire 32 & write_data [31:0] $end
$var wire 1 ' wire_data $end
$var wire 1 ( taken $end
$var wire 32 ) sextimm [31:0] $end
$var wire 32 * rs2_out [31:0] $end
$var wire 5 + rs2 [4:0] $end
$var wire 32 , rs1_out [31:0] $end
$var wire 5 - rs1 [4:0] $end
$var wire 1 . reg_write $end
$var wire 32 / read_data [31:0] $end
$var wire 5 0 rd [4:0] $end
$var wire 7 1 opcode [6:0] $end
$var wire 1 2 mem_write $end
$var wire 1 3 mem_to_reg $end
$var wire 1 4 mem_read $end
$var wire 2 5 jump [1:0] $end
$var wire 7 6 funct7 [6:0] $end
$var wire 3 7 funct3 [2:0] $end
$var wire 1 8 branch $end
$var wire 1 9 alu_src $end
$var wire 32 : alu_out [31:0] $end
$var wire 2 ; alu_op [1:0] $end
$var wire 32 < alu_in2 [31:0] $end
$var wire 4 = alu_func [3:0] $end
$var wire 1 > alu_check $end
$var wire 32 ? PC_PLUS_IMM [31:0] $end
$var wire 32 @ PC_PLUS_4 [31:0] $end
$var wire 32 A NEXT_PC_candi [31:0] $end
$var wire 32 B NEXT_PC [31:0] $end
$var reg 32 C PC [31:0] $end
$scope module get_imm $end
$var wire 32 D instruction [31:0] $end
$var wire 7 E opcode [6:0] $end
$var reg 32 F sextimm [31:0] $end
$upscope $end
$scope module m_ALU $end
$var wire 32 G in_a [31:0] $end
$var wire 32 H in_b [31:0] $end
$var wire 4 I alu_func [3:0] $end
$var reg 1 > check $end
$var reg 32 J result [31:0] $end
$upscope $end
$scope module m_ALU_control $end
$var wire 3 K funct3 [2:0] $end
$var wire 7 L funct7 [6:0] $end
$var wire 4 M funct [3:0] $end
$var wire 2 N alu_op [1:0] $end
$var reg 4 O alu_func [3:0] $end
$upscope $end
$scope module m_branch_control $end
$var wire 1 > check $end
$var wire 1 8 branch $end
$var reg 1 ( taken $end
$upscope $end
$scope module m_control $end
$var wire 7 P opcode [6:0] $end
$var wire 1 . reg_write $end
$var wire 1 2 mem_write $end
$var wire 1 3 mem_to_reg $end
$var wire 1 4 mem_read $end
$var wire 2 Q jump [1:0] $end
$var wire 1 8 branch $end
$var wire 1 9 alu_src $end
$var wire 2 R alu_op [1:0] $end
$var reg 10 S controls [9:0] $end
$upscope $end
$scope module m_data_memory $end
$var wire 32 T address [31:0] $end
$var wire 1 ! clk $end
$var wire 2 U maskmode [1:0] $end
$var wire 1 4 mem_read $end
$var wire 1 2 mem_write $end
$var wire 1 V sext $end
$var wire 32 W write_data [31:0] $end
$var wire 8 X address_internal [7:0] $end
$var reg 32 Y read_data [31:0] $end
$upscope $end
$scope module m_next_pc_adder $end
$var wire 32 Z in_a [31:0] $end
$var wire 32 [ in_b [31:0] $end
$var reg 32 \ result [31:0] $end
$upscope $end
$scope module m_next_pc_adder2 $end
$var wire 32 ] in_a [31:0] $end
$var wire 32 ^ in_b [31:0] $end
$var reg 32 _ result [31:0] $end
$upscope $end
$scope module m_next_pc_mux1 $end
$var wire 32 ` in1 [31:0] $end
$var wire 32 a in2 [31:0] $end
$var wire 1 b select $end
$var reg 32 c out [31:0] $end
$upscope $end
$scope module m_next_pc_mux2 $end
$var wire 32 d in1 [31:0] $end
$var wire 1 e select $end
$var wire 32 f in2 [31:0] $end
$var reg 32 g out [31:0] $end
$upscope $end
$scope module m_register_file $end
$var wire 1 ! clk $end
$var wire 5 h rd [4:0] $end
$var wire 1 . reg_write $end
$var wire 5 i rs1 [4:0] $end
$var wire 32 j rs1_out [31:0] $end
$var wire 5 k rs2 [4:0] $end
$var wire 32 l rs2_out [31:0] $end
$var wire 32 m write_data [31:0] $end
$upscope $end
$scope module mux_alu_src $end
$var wire 32 n in1 [31:0] $end
$var wire 32 o in2 [31:0] $end
$var wire 1 9 select $end
$var reg 32 p out [31:0] $end
$upscope $end
$upscope $end
$upscope $end
$enddefinitions $end
#0
$dumpvars
bx p
bx o
bx n
bz m
bx l
bx k
bx j
bx i
bx h
bx g
bx f
xe
bx d
bx c
xb
bx a
bx `
bx _
bx ^
bx ]
bx \
b100 [
bx Z
b0 Y
bx X
bx W
0V
b0 U
bx T
bx S
bx R
bx Q
bx P
bx O
bx N
bx M
bx L
bx K
bx J
bx I
bx H
bx G
bx F
bx E
bx D
bx C
bx B
bx A
bx @
bx ?
x>
bx =
bx <
bx ;
bx :
x9
x8
bx 7
bx 6
bx 5
x4
x3
x2
bx 1
bx 0
b0 /
x.
bx -
bx ,
bx +
bx *
bx )
x(
x'
bz &
bx %
bx $
b1000000 #
0"
0!
$end
#2000
0b
0e
b0 5
b0 Q
08
04
03
b10 ;
b10 N
b10 R
02
09
1.
0(
b0 X
1'
b10001 S
b0 =
b0 I
b0 O
0>
b11 :
b11 J
b11 T
b0 ?
b0 _
b0 a
b10 <
b10 H
b10 p
b100 B
b100 g
b110011 1
b110011 P
b0 6
b0 L
b0 M
b0 7
b0 K
b1 $
b1 G
b1 ,
b1 f
b1 j
b1 -
b1 i
b10 *
b10 W
b10 l
b10 n
b10 +
b10 k
b10000 0
b10000 h
b0 )
b0 F
b0 ^
b0 o
b110011 E
b100 A
b100 c
b100 d
b1000001000100000110011 %
b1000001000100000110011 D
b100 @
b100 \
b100 `
b0 C
b0 Z
b0 ]
1!
#4000
0!
#6000
b11111111 X
0'
b1 =
b1 I
b1 O
b1000 M
b11111111111111111111111111111100 :
b11111111111111111111111111111100 J
b11111111111111111111111111111100 T
b1000 <
b1000 H
b1000 p
b1000 B
b1000 g
b100000 6
b100000 L
b100 $
b100 G
b100 ,
b100 f
b100 j
b100 -
b100 i
b1000 *
b1000 W
b1000 l
b1000 n
b1000 +
b1000 k
b10001 0
b10001 h
b1000 A
b1000 c
b1000 d
b1000000100000100000100010110011 %
b1000000100000100000100010110011 D
b1000 @
b1000 \
b1000 `
b100 ?
b100 _
b100 a
b100 C
b100 Z
b100 ]
1!
1"
#8000
0!
#10000
1>
b1 X
b10 =
b10 I
b10 O
b110 :
b110 J
b110 T
b101 <
b101 H
b101 p
b1100 B
b1100 g
b0 6
b0 L
b100 M
b100 7
b100 K
b11 $
b11 G
b11 ,
b11 f
b11 j
b11 -
b11 i
b101 *
b101 W
b101 l
b101 n
b101 +
b101 k
b10010 0
b10010 h
b1100 A
b1100 c
b1100 d
b10100011100100100110011 %
b10100011100100100110011 D
b1100 @
b1100 \
b1100 `
b1000 ?
b1000 _
b1000 a
b1000 C
b1000 Z
b1000 ]
1!
#12000
0!
#14000
1'
0>
b111 :
b111 J
b111 T
b11 =
b11 I
b11 O
b10000 B
b10000 g
b110 M
b110 7
b110 K
b10011 0
b10011 h
b10000 A
b10000 c
b10000 d
b10100011110100110110011 %
b10100011110100110110011 D
b10000 @
b10000 \
b10000 `
b1100 ?
b1100 _
b1100 a
b1100 C
b1100 Z
b1100 ]
1!
#16000
0!
#18000
b0 X
b1 :
b1 J
b1 T
b100 =
b100 I
b100 O
b11 <
b11 H
b11 p
b10100 B
b10100 g
b111 M
b111 7
b111 K
b101 $
b101 G
b101 ,
b101 f
b101 j
b101 -
b101 i
b11 *
b11 W
b11 l
b11 n
b11 +
b11 k
b10100 0
b10100 h
b10100 A
b10100 c
b10100 d
b1100101111101000110011 %
b1100101111101000110011 D
b10100 @
b10100 \
b10100 `
b10000 ?
b10000 _
b10000 a
b10000 C
b10000 Z
b10000 ]
1!
#20000
0!
#22000
b11111110 X
1'
b1 =
b1 I
b1 O
b11111111111111111111111111111011 :
b11111111111111111111111111111011 J
b11111111111111111111111111111011 T
b110 <
b110 H
b110 p
b11000 B
b11000 g
b100000 6
b100000 L
b1000 M
b0 7
b0 K
b1 $
b1 G
b1 ,
b1 f
b1 j
b1 -
b1 i
b110 *
b110 W
b110 l
b110 n
b110 +
b110 k
b10101 0
b10101 h
b11000 A
b11000 c
b11000 d
b1000000011000001000101010110011 %
b1000000011000001000101010110011 D
b11000 @
b11000 \
b11000 `
b10100 ?
b10100 _
b10100 a
b10100 C
b10100 Z
b10100 ]
1!
#24000
0!
#26000
b11 ;
b11 N
b11 R
19
b0 X
0'
b11011 S
b0 =
b0 I
b0 O
b0 M
0>
b0 :
b0 J
b0 T
b0 <
b0 H
b0 p
b11100 B
b11100 g
b10011 1
b10011 P
b0 6
b0 L
b0 $
b0 G
b0 ,
b0 f
b0 j
b0 -
b0 i
b0 *
b0 W
b0 l
b0 n
b0 +
b0 k
b0 0
b0 h
b10011 E
b11100 A
b11100 c
b11100 d
b10011 %
b10011 D
b11100 @
b11100 \
b11100 `
b11000 ?
b11000 _
b11000 a
b11000 C
b11000 Z
b11000 ]
1!
#28000
b0 $
b0 G
b0 ,
b0 f
b0 j
b0 *
b0 W
b0 l
b0 n
0!
#30000
b100000 B
b100000 g
b100000 A
b100000 c
b100000 d
b100000 @
b100000 \
b100000 `
b11100 ?
b11100 _
b11100 a
b11100 C
b11100 Z
b11100 ]
1!
#32000
b0 $
b0 G
b0 ,
b0 f
b0 j
b0 *
b0 W
b0 l
b0 n
0!
#34000
b100100 B
b100100 g
b100100 A
b100100 c
b100100 d
b100100 @
b100100 \
b100100 `
b100000 ?
b100000 _
b100000 a
b100000 C
b100000 Z
b100000 ]
1!
#36000
b0 $
b0 G
b0 ,
b0 f
b0 j
b0 *
b0 W
b0 l
b0 n
0!
#38000
b101000 B
b101000 g
b101000 A
b101000 c
b101000 d
b101000 @
b101000 \
b101000 `
b100100 ?
b100100 _
b100100 a
b100100 C
b100100 Z
b100100 ]
1!
#40000
b0 $
b0 G
b0 ,
b0 f
b0 j
b0 *
b0 W
b0 l
b0 n
0!
#42000
b101100 B
b101100 g
b101100 A
b101100 c
b101100 d
b101100 @
b101100 \
b101100 `
b101000 ?
b101000 _
b101000 a
b101000 C
b101000 Z
b101000 ]
1!
#44000
b0 $
b0 G
b0 ,
b0 f
b0 j
b0 *
b0 W
b0 l
b0 n
0!
#46000
b110000 B
b110000 g
b110000 A
b110000 c
b110000 d
b110000 @
b110000 \
b110000 `
b101100 ?
b101100 _
b101100 a
b101100 C
b101100 Z
b101100 ]
1!
#48000
b0 $
b0 G
b0 ,
b0 f
b0 j
b0 *
b0 W
b0 l
b0 n
0!
#50000
b110100 B
b110100 g
b110100 A
b110100 c
b110100 d
b110100 @
b110100 \
b110100 `
b110000 ?
b110000 _
b110000 a
b110000 C
b110000 Z
b110000 ]
1!
#52000
b0 $
b0 G
b0 ,
b0 f
b0 j
b0 *
b0 W
b0 l
b0 n
0!
#54000
b111000 B
b111000 g
b111000 A
b111000 c
b111000 d
b111000 @
b111000 \
b111000 `
b110100 ?
b110100 _
b110100 a
b110100 C
b110100 Z
b110100 ]
1!
#56000
b0 $
b0 G
b0 ,
b0 f
b0 j
b0 *
b0 W
b0 l
b0 n
0!
#58000
b111100 B
b111100 g
b111100 A
b111100 c
b111100 d
b111100 @
b111100 \
b111100 `
b111000 ?
b111000 _
b111000 a
b111000 C
b111000 Z
b111000 ]
1!
#60000
b0 $
b0 G
b0 ,
b0 f
b0 j
b0 *
b0 W
b0 l
b0 n
0!
#62000
b1000000 B
b1000000 g
b1000000 A
b1000000 c
b1000000 d
b1000000 @
b1000000 \
b1000000 `
b111100 ?
b111100 _
b111100 a
b111100 C
b111100 Z
b111100 ]
1!
#64000
b0 $
b0 G
b0 ,
b0 f
b0 j
b0 *
b0 W
b0 l
b0 n
0!
#66000
bx <
bx H
bx p
b0 ;
b0 N
b0 R
09
0.
bx X
x'
b0 S
b0 =
b0 I
b0 O
bx :
bx J
bx T
b1000100 B
b1000100 g
bx 1
bx P
bx 6
bx L
bx M
bx 7
bx K
bx $
bx G
bx ,
bx f
bx j
bx -
bx i
bx *
bx W
bx l
bx n
bx +
bx k
bx 0
bx h
bx E
b1000100 A
b1000100 c
b1000100 d
bx %
bx D
b1000100 @
b1000100 \
b1000100 `
b1000000 ?
b1000000 _
b1000000 a
b1000000 C
b1000000 Z
b1000000 ]
1!
#68000
0!
#70000
b1001000 B
b1001000 g
b1001000 A
b1001000 c
b1001000 d
b1001000 @
b1001000 \
b1001000 `
b1000100 ?
b1000100 _
b1000100 a
b1000100 C
b1000100 Z
b1000100 ]
1!
#72000
0!
#74000
b1001100 B
b1001100 g
b1001100 A
b1001100 c
b1001100 d
b1001100 @
b1001100 \
b1001100 `
b1001000 ?
b1001000 _
b1001000 a
b1001000 C
b1001000 Z
b1001000 ]
1!
#76000
0!
#78000
b1010000 B
b1010000 g
b1010000 A
b1010000 c
b1010000 d
b1010000 @
b1010000 \
b1010000 `
b1001100 ?
b1001100 _
b1001100 a
b1001100 C
b1001100 Z
b1001100 ]
1!
#80000
0!
#82000
b1010100 B
b1010100 g
b1010100 A
b1010100 c
b1010100 d
b1010100 @
b1010100 \
b1010100 `
b1010000 ?
b1010000 _
b1010000 a
b1010000 C
b1010000 Z
b1010000 ]
1!
#84000
0!
#86000
b1011000 B
b1011000 g
b1011000 A
b1011000 c
b1011000 d
b1011000 @
b1011000 \
b1011000 `
b1010100 ?
b1010100 _
b1010100 a
b1010100 C
b1010100 Z
b1010100 ]
1!
#88000
0!
#90000
b1011100 B
b1011100 g
b1011100 A
b1011100 c
b1011100 d
b1011100 @
b1011100 \
b1011100 `
b1011000 ?
b1011000 _
b1011000 a
b1011000 C
b1011000 Z
b1011000 ]
1!
#92000
0!
#94000
b1100000 B
b1100000 g
b1100000 A
b1100000 c
b1100000 d
b1100000 @
b1100000 \
b1100000 `
b1011100 ?
b1011100 _
b1011100 a
b1011100 C
b1011100 Z
b1011100 ]
1!
#96000
0!
#98000
b1100100 B
b1100100 g
b1100100 A
b1100100 c
b1100100 d
b1100100 @
b1100100 \
b1100100 `
b1100000 ?
b1100000 _
b1100000 a
b1100000 C
b1100000 Z
b1100000 ]
1!
#100000
0!
#102000
b1101000 B
b1101000 g
b1101000 A
b1101000 c
b1101000 d
b1101000 @
b1101000 \
b1101000 `
b1100100 ?
b1100100 _
b1100100 a
b1100100 C
b1100100 Z
b1100100 ]
1!
#104000
0!
#106000
b1101100 B
b1101100 g
b1101100 A
b1101100 c
b1101100 d
b1101100 @
b1101100 \
b1101100 `
b1101000 ?
b1101000 _
b1101000 a
b1101000 C
b1101000 Z
b1101000 ]
1!
#108000
0!
#110000
b1110000 B
b1110000 g
b1110000 A
b1110000 c
b1110000 d
b1110000 @
b1110000 \
b1110000 `
b1101100 ?
b1101100 _
b1101100 a
b1101100 C
b1101100 Z
b1101100 ]
1!
#112000
0!
#114000
b1110100 B
b1110100 g
b1110100 A
b1110100 c
b1110100 d
b1110100 @
b1110100 \
b1110100 `
b1110000 ?
b1110000 _
b1110000 a
b1110000 C
b1110000 Z
b1110000 ]
1!
#116000
0!
#118000
b1111000 B
b1111000 g
b1111000 A
b1111000 c
b1111000 d
b1111000 @
b1111000 \
b1111000 `
b1110100 ?
b1110100 _
b1110100 a
b1110100 C
b1110100 Z
b1110100 ]
1!
#120000
0!
#122000
b1111100 B
b1111100 g
b1111100 A
b1111100 c
b1111100 d
b1111100 @
b1111100 \
b1111100 `
b1111000 ?
b1111000 _
b1111000 a
b1111000 C
b1111000 Z
b1111000 ]
1!
#124000
0!
#126000
b10000000 B
b10000000 g
b10000000 A
b10000000 c
b10000000 d
b10000000 @
b10000000 \
b10000000 `
b1111100 ?
b1111100 _
b1111100 a
b1111100 C
b1111100 Z
b1111100 ]
1!
#128000
0!
#130000
b10000100 B
b10000100 g
b10000100 A
b10000100 c
b10000100 d
b10000100 @
b10000100 \
b10000100 `
b10000000 ?
b10000000 _
b10000000 a
b10000000 C
b10000000 Z
b10000000 ]
1!
#132000
0!
#134000
b10001000 B
b10001000 g
b10001000 A
b10001000 c
b10001000 d
b10001000 @
b10001000 \
b10001000 `
b10000100 ?
b10000100 _
b10000100 a
b10000100 C
b10000100 Z
b10000100 ]
1!
#136000
0!
#138000
b10001100 B
b10001100 g
b10001100 A
b10001100 c
b10001100 d
b10001100 @
b10001100 \
b10001100 `
b10001000 ?
b10001000 _
b10001000 a
b10001000 C
b10001000 Z
b10001000 ]
1!
#140000
0!
#142000
b10010000 B
b10010000 g
b10010000 A
b10010000 c
b10010000 d
b10010000 @
b10010000 \
b10010000 `
b10001100 ?
b10001100 _
b10001100 a
b10001100 C
b10001100 Z
b10001100 ]
1!
#144000
0!
#146000
b10010100 B
b10010100 g
b10010100 A
b10010100 c
b10010100 d
b10010100 @
b10010100 \
b10010100 `
b10010000 ?
b10010000 _
b10010000 a
b10010000 C
b10010000 Z
b10010000 ]
1!
#148000
0!
#150000
b10011000 B
b10011000 g
b10011000 A
b10011000 c
b10011000 d
b10011000 @
b10011000 \
b10011000 `
b10010100 ?
b10010100 _
b10010100 a
b10010100 C
b10010100 Z
b10010100 ]
1!
#152000
0!
#154000
b10011100 B
b10011100 g
b10011100 A
b10011100 c
b10011100 d
b10011100 @
b10011100 \
b10011100 `
b10011000 ?
b10011000 _
b10011000 a
b10011000 C
b10011000 Z
b10011000 ]
1!
#156000
0!
#158000
b10100000 B
b10100000 g
b10100000 A
b10100000 c
b10100000 d
b10100000 @
b10100000 \
b10100000 `
b10011100 ?
b10011100 _
b10011100 a
b10011100 C
b10011100 Z
b10011100 ]
1!
#160000
0!
#162000
b10100100 B
b10100100 g
b10100100 A
b10100100 c
b10100100 d
b10100100 @
b10100100 \
b10100100 `
b10100000 ?
b10100000 _
b10100000 a
b10100000 C
b10100000 Z
b10100000 ]
1!
#164000
0!
#166000
b10101000 B
b10101000 g
b10101000 A
b10101000 c
b10101000 d
b10101000 @
b10101000 \
b10101000 `
b10100100 ?
b10100100 _
b10100100 a
b10100100 C
b10100100 Z
b10100100 ]
1!
#168000
0!
#170000
b10101100 B
b10101100 g
b10101100 A
b10101100 c
b10101100 d
b10101100 @
b10101100 \
b10101100 `
b10101000 ?
b10101000 _
b10101000 a
b10101000 C
b10101000 Z
b10101000 ]
1!
#172000
0!
#174000
b10110000 B
b10110000 g
b10110000 A
b10110000 c
b10110000 d
b10110000 @
b10110000 \
b10110000 `
b10101100 ?
b10101100 _
b10101100 a
b10101100 C
b10101100 Z
b10101100 ]
1!
#176000
0!
#178000
b10110100 B
b10110100 g
b10110100 A
b10110100 c
b10110100 d
b10110100 @
b10110100 \
b10110100 `
b10110000 ?
b10110000 _
b10110000 a
b10110000 C
b10110000 Z
b10110000 ]
1!
#180000
0!
#182000
b10111000 B
b10111000 g
b10111000 A
b10111000 c
b10111000 d
b10111000 @
b10111000 \
b10111000 `
b10110100 ?
b10110100 _
b10110100 a
b10110100 C
b10110100 Z
b10110100 ]
1!
#184000
0!
#186000
b10111100 B
b10111100 g
b10111100 A
b10111100 c
b10111100 d
b10111100 @
b10111100 \
b10111100 `
b10111000 ?
b10111000 _
b10111000 a
b10111000 C
b10111000 Z
b10111000 ]
1!
#188000
0!
#190000
b11000000 B
b11000000 g
b11000000 A
b11000000 c
b11000000 d
b11000000 @
b11000000 \
b11000000 `
b10111100 ?
b10111100 _
b10111100 a
b10111100 C
b10111100 Z
b10111100 ]
1!
#192000
0!
#194000
b11000100 B
b11000100 g
b11000100 A
b11000100 c
b11000100 d
b11000100 @
b11000100 \
b11000100 `
b11000000 ?
b11000000 _
b11000000 a
b11000000 C
b11000000 Z
b11000000 ]
1!
#196000
0!
#198000
b11001000 B
b11001000 g
b11001000 A
b11001000 c
b11001000 d
b11001000 @
b11001000 \
b11001000 `
b11000100 ?
b11000100 _
b11000100 a
b11000100 C
b11000100 Z
b11000100 ]
1!
#200000
0!
#202000
b11001100 B
b11001100 g
b11001100 A
b11001100 c
b11001100 d
b11001100 @
b11001100 \
b11001100 `
b11001000 ?
b11001000 _
b11001000 a
b11001000 C
b11001000 Z
b11001000 ]
1!
#204000
0!
#206000
b11010000 B
b11010000 g
b11010000 A
b11010000 c
b11010000 d
b11010000 @
b11010000 \
b11010000 `
b11001100 ?
b11001100 _
b11001100 a
b11001100 C
b11001100 Z
b11001100 ]
1!
#208000
0!
#210000
b11010100 B
b11010100 g
b11010100 A
b11010100 c
b11010100 d
b11010100 @
b11010100 \
b11010100 `
b11010000 ?
b11010000 _
b11010000 a
b11010000 C
b11010000 Z
b11010000 ]
1!
#212000
0!
#214000
b11011000 B
b11011000 g
b11011000 A
b11011000 c
b11011000 d
b11011000 @
b11011000 \
b11011000 `
b11010100 ?
b11010100 _
b11010100 a
b11010100 C
b11010100 Z
b11010100 ]
1!
#216000
0!
#218000
b11011100 B
b11011100 g
b11011100 A
b11011100 c
b11011100 d
b11011100 @
b11011100 \
b11011100 `
b11011000 ?
b11011000 _
b11011000 a
b11011000 C
b11011000 Z
b11011000 ]
1!
#220000
0!
#222000
b11100000 B
b11100000 g
b11100000 A
b11100000 c
b11100000 d
b11100000 @
b11100000 \
b11100000 `
b11011100 ?
b11011100 _
b11011100 a
b11011100 C
b11011100 Z
b11011100 ]
1!
#224000
0!
#226000
b11100100 B
b11100100 g
b11100100 A
b11100100 c
b11100100 d
b11100100 @
b11100100 \
b11100100 `
b11100000 ?
b11100000 _
b11100000 a
b11100000 C
b11100000 Z
b11100000 ]
1!
#228000
0!
#230000
b11101000 B
b11101000 g
b11101000 A
b11101000 c
b11101000 d
b11101000 @
b11101000 \
b11101000 `
b11100100 ?
b11100100 _
b11100100 a
b11100100 C
b11100100 Z
b11100100 ]
1!
#232000
0!
#234000
b11101100 B
b11101100 g
b11101100 A
b11101100 c
b11101100 d
b11101100 @
b11101100 \
b11101100 `
b11101000 ?
b11101000 _
b11101000 a
b11101000 C
b11101000 Z
b11101000 ]
1!
#236000
0!
#238000
b11110000 B
b11110000 g
b11110000 A
b11110000 c
b11110000 d
b11110000 @
b11110000 \
b11110000 `
b11101100 ?
b11101100 _
b11101100 a
b11101100 C
b11101100 Z
b11101100 ]
1!
#240000
0!
#242000
b11110100 B
b11110100 g
b11110100 A
b11110100 c
b11110100 d
b11110100 @
b11110100 \
b11110100 `
b11110000 ?
b11110000 _
b11110000 a
b11110000 C
b11110000 Z
b11110000 ]
1!
#244000
0!
#246000
b11111000 B
b11111000 g
b11111000 A
b11111000 c
b11111000 d
b11111000 @
b11111000 \
b11111000 `
b11110100 ?
b11110100 _
b11110100 a
b11110100 C
b11110100 Z
b11110100 ]
1!
#248000
0!
#250000
b11111100 B
b11111100 g
b11111100 A
b11111100 c
b11111100 d
b11111100 @
b11111100 \
b11111100 `
b11111000 ?
b11111000 _
b11111000 a
b11111000 C
b11111000 Z
b11111000 ]
1!
#252000
0!
#254000
b100000000 B
b100000000 g
b100000000 A
b100000000 c
b100000000 d
b100000000 @
b100000000 \
b100000000 `
b11111100 ?
b11111100 _
b11111100 a
b11111100 C
b11111100 Z
b11111100 ]
1!
#256000
0!
#258000
b10 ;
b10 N
b10 R
1.
b0 X
1'
b10001 S
b11 :
b11 J
b11 T
b10 <
b10 H
b10 p
b100000100 B
b100000100 g
b110011 1
b110011 P
b0 6
b0 L
b0 M
b0 7
b0 K
b1 $
b1 G
b1 ,
b1 f
b1 j
b1 -
b1 i
b10 *
b10 W
b10 l
b10 n
b10 +
b10 k
b10000 0
b10000 h
b110011 E
b100000100 A
b100000100 c
b100000100 d
b1000001000100000110011 %
b1000001000100000110011 D
b100000100 @
b100000100 \
b100000100 `
b100000000 ?
b100000000 _
b100000000 a
b100000000 C
b100000000 Z
b100000000 ]
1!
#260000
0!
#262000
b11111111 X
0'
b1 =
b1 I
b1 O
b1000 M
b11111111111111111111111111111100 :
b11111111111111111111111111111100 J
b11111111111111111111111111111100 T
b1000 <
b1000 H
b1000 p
b100001000 B
b100001000 g
b100000 6
b100000 L
b100 $
b100 G
b100 ,
b100 f
b100 j
b100 -
b100 i
b1000 *
b1000 W
b1000 l
b1000 n
b1000 +
b1000 k
b10001 0
b10001 h
b100001000 A
b100001000 c
b100001000 d
b1000000100000100000100010110011 %
b1000000100000100000100010110011 D
b100001000 @
b100001000 \
b100001000 `
b100000100 ?
b100000100 _
b100000100 a
b100000100 C
b100000100 Z
b100000100 ]
1!
#264000
0!
#266000
1>
b1 X
b10 =
b10 I
b10 O
b110 :
b110 J
b110 T
b101 <
b101 H
b101 p
b100001100 B
b100001100 g
b0 6
b0 L
b100 M
b100 7
b100 K
b11 $
b11 G
b11 ,
b11 f
b11 j
b11 -
b11 i
b101 *
b101 W
b101 l
b101 n
b101 +
b101 k
b10010 0
b10010 h
b100001100 A
b100001100 c
b100001100 d
b10100011100100100110011 %
b10100011100100100110011 D
b100001100 @
b100001100 \
b100001100 `
b100001000 ?
b100001000 _
b100001000 a
b100001000 C
b100001000 Z
b100001000 ]
1!
#268000
0!
#270000
1'
0>
b111 :
b111 J
b111 T
b11 =
b11 I
b11 O
b100010000 B
b100010000 g
b110 M
b110 7
b110 K
b10011 0
b10011 h
b100010000 A
b100010000 c
b100010000 d
b10100011110100110110011 %
b10100011110100110110011 D
b100010000 @
b100010000 \
b100010000 `
b100001100 ?
b100001100 _
b100001100 a
b100001100 C
b100001100 Z
b100001100 ]
1!
#272000
0!
#274000
b0 X
b1 :
b1 J
b1 T
b100 =
b100 I
b100 O
b11 <
b11 H
b11 p
b100010100 B
b100010100 g
b111 M
b111 7
b111 K
b101 $
b101 G
b101 ,
b101 f
b101 j
b101 -
b101 i
b11 *
b11 W
b11 l
b11 n
b11 +
b11 k
b10100 0
b10100 h
b100010100 A
b100010100 c
b100010100 d
b1100101111101000110011 %
b1100101111101000110011 D
b100010100 @
b100010100 \
b100010100 `
b100010000 ?
b100010000 _
b100010000 a
b100010000 C
b100010000 Z
b100010000 ]
1!
#276000
0!
#278000
b11111110 X
1'
b1 =
b1 I
b1 O
b11111111111111111111111111111011 :
b11111111111111111111111111111011 J
b11111111111111111111111111111011 T
b110 <
b110 H
b110 p
b100011000 B
b100011000 g
b100000 6
b100000 L
b1000 M
b0 7
b0 K
b1 $
b1 G
b1 ,
b1 f
b1 j
b1 -
b1 i
b110 *
b110 W
b110 l
b110 n
b110 +
b110 k
b10101 0
b10101 h
b100011000 A
b100011000 c
b100011000 d
b1000000011000001000101010110011 %
b1000000011000001000101010110011 D
b100011000 @
b100011000 \
b100011000 `
b100010100 ?
b100010100 _
b100010100 a
b100010100 C
b100010100 Z
b100010100 ]
1!
#280000
0!
#282000
b11 ;
b11 N
b11 R
19
b0 X
0'
b11011 S
b0 =
b0 I
b0 O
b0 M
0>
b0 :
b0 J
b0 T
b0 <
b0 H
b0 p
b100011100 B
b100011100 g
b10011 1
b10011 P
b0 6
b0 L
b0 $
b0 G
b0 ,
b0 f
b0 j
b0 -
b0 i
b0 *
b0 W
b0 l
b0 n
b0 +
b0 k
b0 0
b0 h
b10011 E
b100011100 A
b100011100 c
b100011100 d
b10011 %
b10011 D
b100011100 @
b100011100 \
b100011100 `
b100011000 ?
b100011000 _
b100011000 a
b100011000 C
b100011000 Z
b100011000 ]
1!
#284000
b0 $
b0 G
b0 ,
b0 f
b0 j
b0 *
b0 W
b0 l
b0 n
0!
#286000
b100100000 B
b100100000 g
b100100000 A
b100100000 c
b100100000 d
b100100000 @
b100100000 \
b100100000 `
b100011100 ?
b100011100 _
b100011100 a
b100011100 C
b100011100 Z
b100011100 ]
1!
#288000
b0 $
b0 G
b0 ,
b0 f
b0 j
b0 *
b0 W
b0 l
b0 n
0!
#290000
b100100100 B
b100100100 g
b100100100 A
b100100100 c
b100100100 d
b100100100 @
b100100100 \
b100100100 `
b100100000 ?
b100100000 _
b100100000 a
b100100000 C
b100100000 Z
b100100000 ]
1!
#292000
b0 $
b0 G
b0 ,
b0 f
b0 j
b0 *
b0 W
b0 l
b0 n
0!
#294000
b100101000 B
b100101000 g
b100101000 A
b100101000 c
b100101000 d
b100101000 @
b100101000 \
b100101000 `
b100100100 ?
b100100100 _
b100100100 a
b100100100 C
b100100100 Z
b100100100 ]
1!
#296000
b0 $
b0 G
b0 ,
b0 f
b0 j
b0 *
b0 W
b0 l
b0 n
0!
#298000
b100101100 B
b100101100 g
b100101100 A
b100101100 c
b100101100 d
b100101100 @
b100101100 \
b100101100 `
b100101000 ?
b100101000 _
b100101000 a
b100101000 C
b100101000 Z
b100101000 ]
1!
#300000
b0 $
b0 G
b0 ,
b0 f
b0 j
b0 *
b0 W
b0 l
b0 n
0!
#302000
b100110000 B
b100110000 g
b100110000 A
b100110000 c
b100110000 d
b100110000 @
b100110000 \
b100110000 `
b100101100 ?
b100101100 _
b100101100 a
b100101100 C
b100101100 Z
b100101100 ]
1!
#304000
b0 $
b0 G
b0 ,
b0 f
b0 j
b0 *
b0 W
b0 l
b0 n
0!
#306000
b100110100 B
b100110100 g
b100110100 A
b100110100 c
b100110100 d
b100110100 @
b100110100 \
b100110100 `
b100110000 ?
b100110000 _
b100110000 a
b100110000 C
b100110000 Z
b100110000 ]
1!
#308000
b0 $
b0 G
b0 ,
b0 f
b0 j
b0 *
b0 W
b0 l
b0 n
0!
#310000
b100111000 B
b100111000 g
b100111000 A
b100111000 c
b100111000 d
b100111000 @
b100111000 \
b100111000 `
b100110100 ?
b100110100 _
b100110100 a
b100110100 C
b100110100 Z
b100110100 ]
1!
#312000
b0 $
b0 G
b0 ,
b0 f
b0 j
b0 *
b0 W
b0 l
b0 n
0!
#314000
b100111100 B
b100111100 g
b100111100 A
b100111100 c
b100111100 d
b100111100 @
b100111100 \
b100111100 `
b100111000 ?
b100111000 _
b100111000 a
b100111000 C
b100111000 Z
b100111000 ]
1!
