Computer Organization/Lab1/sim.vcd
$date
	Wed Apr 12 21:44:33 2023
$end
$version
	Icarus Verilog
$end
$timescale
	10ps
$end
$scope module riscv_tb $end
$var reg 1 ! clk $end
$var reg 1 " rstn $end
$var integer 32 # i [31:0] $end
$scope module my_cpu $end
$var wire 32 $ alu_in1 [31:0] $end
$var wire 1 ! clk $end
$var wire 32 % instruction [31:0] $end
$var wire 1 " rstn $end
$var wire 32 & write_data_candi [31:0] $end
$var wire 32 ' write_data [31:0] $end
$var wire 1 ( taken $end
$var wire 32 ) sextimm [31:0] $end
$var wire 32 * rs2_out [31:0] $end
$var wire 5 + rs2 [4:0] $end
$var wire 32 , rs1_out [31:0] $end
$var wire 5 - rs1 [4:0] $end
$var wire 1 . reg_write $end
$var wire 32 / read_data [31:0] $end
$var wire 5 0 rd [4:0] $end
$var wire 7 1 opcode [6:0] $end
$var wire 1 2 mem_write $end
$var wire 1 3 mem_to_reg $end
$var wire 1 4 mem_read $end
$var wire 2 5 jump [1:0] $end
$var wire 7 6 funct7 [6:0] $end
$var wire 3 7 funct3 [2:0] $end
$var wire 1 8 branch $end
$var wire 1 9 alu_src $end
$var wire 32 : alu_out [31:0] $end
$var wire 2 ; alu_op [1:0] $end
$var wire 32 < alu_in2 [31:0] $end
$var wire 4 = alu_func [3:0] $end
$var wire 1 > alu_check $end
$var wire 32 ? adder2_result [31:0] $end
$var wire 32 @ adder2_in_a [31:0] $end
$var wire 32 A PC_PLUS_4 [31:0] $end
$var wire 32 B NEXT_PC [31:0] $end
$var reg 32 C PC [31:0] $end
$scope module get_imm $end
$var wire 32 D instruction [31:0] $end
$var wire 7 E opcode [6:0] $end
$var reg 32 F sextimm [31:0] $end
$upscope $end
$scope module m_ALU $end
$var wire 32 G in_a [31:0] $end
$var wire 32 H in_b [31:0] $end
$var wire 4 I alu_func [3:0] $end
$var reg 1 > check $end
$var reg 32 J result [31:0] $end
$upscope $end
$scope module m_ALU_control $end
$var wire 3 K funct3 [2:0] $end
$var wire 7 L funct7 [6:0] $end
$var wire 4 M funct [3:0] $end
$var wire 2 N alu_op [1:0] $end
$var reg 4 O alu_func [3:0] $end
$upscope $end
$scope module m_WB_mux1 $end
$var wire 32 P in1 [31:0] $end
$var wire 1 3 select $end
$var wire 32 Q in2 [31:0] $end
$var reg 32 R out [31:0] $end
$upscope $end
$scope module m_WB_mux2 $end
$var wire 32 S in1 [31:0] $end
$var wire 1 T select $end
$var wire 32 U in2 [31:0] $end
$var reg 32 V out [31:0] $end
$upscope $end
$scope module m_branch_control $end
$var wire 1 > check $end
$var wire 1 8 branch $end
$var reg 1 ( taken $end
$upscope $end
$scope module m_control $end
$var wire 7 W opcode [6:0] $end
$var wire 1 . reg_write $end
$var wire 1 2 mem_write $end
$var wire 1 3 mem_to_reg $end
$var wire 1 4 mem_read $end
$var wire 2 X jump [1:0] $end
$var wire 1 8 branch $end
$var wire 1 9 alu_src $end
$var wire 2 Y alu_op [1:0] $end
$var reg 10 Z controls [9:0] $end
$upscope $end
$scope module m_data_memory $end
$var wire 32 [ address [31:0] $end
$var wire 1 ! clk $end
$var wire 2 \ maskmode [1:0] $end
$var wire 1 4 mem_read $end
$var wire 1 2 mem_write $end
$var wire 1 ] sext $end
$var wire 32 ^ write_data [31:0] $end
$var wire 8 _ address_internal [7:0] $end
$var reg 32 ` read_data [31:0] $end
$upscope $end
$scope module m_next_pc_adder $end
$var wire 32 a in_a [31:0] $end
$var wire 32 b in_b [31:0] $end
$var reg 32 c result [31:0] $end
$upscope $end
$scope module m_next_pc_adder2 $end
$var wire 32 d in_b [31:0] $end
$var wire 32 e in_a [31:0] $end
$var reg 32 f result [31:0] $end
$upscope $end
$scope module m_next_pc_mux1 $end
$var wire 32 g in1 [31:0] $end
$var wire 1 h select $end
$var wire 32 i in2 [31:0] $end
$var reg 32 j out [31:0] $end
$upscope $end
$scope module m_next_pc_mux2 $end
$var wire 32 k in1 [31:0] $end
$var wire 32 l in2 [31:0] $end
$var wire 1 m select $end
$var reg 32 n out [31:0] $end
$upscope $end
$scope module m_register_file $end
$var wire 1 ! clk $end
$var wire 5 o rd [4:0] $end
$var wire 1 . reg_write $end
$var wire 5 p rs1 [4:0] $end
$var wire 32 q rs1_out [31:0] $end
$var wire 5 r rs2 [4:0] $end
$var wire 32 s rs2_out [31:0] $end
$var wire 32 t write_data [31:0] $end
$upscope $end
$scope module mux_alu_src $end
$var wire 32 u in1 [31:0] $end
$var wire 32 v in2 [31:0] $end
$var wire 1 9 select $end
$var reg 32 w out [31:0] $end
$upscope $end
$upscope $end
$upscope $end
$enddefinitions $end
#0
$dumpvars
bx w
bx v
bx u
b0 t
bx s
bx r
bx q
bx p
bx o
bx n
xm
bx l
bx k
bx j
bx i
xh
bx g
bx f
bx e
bx d
bx c
b100 b
bx a
b0 `
bx _
bx ^
x]
bx \
bx [
bx Z
bx Y
bx X
bx W
b0 V
bx U
xT
b0 S
b0 R
b0 Q
bx P
bx O
bx N
bx M
bx L
bx K
bx J
bx I
bx H
bx G
bx F
bx E
bx D
bx C
bx B
bx A
bx @
bx ?
x>
bx =
bx <
bx ;
bx :
x9
x8
bx 7
bx 6
bx 5
x4
x3
x2
bx 1
bx 0
b0 /
x.
bx -
bx ,
bx +
bx *
bx )
x(
b0 '
b0 &
bx %
bx $
b1000000 #
0"
0!
$end
#2000
b11100000 '
b11100000 V
b11100000 t
b11100000 &
b11100000 R
b11100000 S
0m
0T
0h
b0 5
b0 X
08
04
03
b11 ;
b11 N
b11 Y
02
19
1.
0(
b111000 _
b11011 Z
b0 \
0]
b0 =
b0 I
b0 O
0>
b11100000 :
b11100000 J
b11100000 P
b11100000 [
b11111111111111111111111111100000 ?
b11111111111111111111111111100000 f
b11111111111111111111111111100000 l
b11111111111111111111111111100000 <
b11111111111111111111111111100000 H
b11111111111111111111111111100000 w
b10011 1
b10011 W
b1111111 6
b1111111 L
b1000 M
b0 7
b0 K
b100000000 $
b100000000 G
b100000000 ,
b100000000 i
b100000000 q
b10 -
b10 p
b0 *
b0 ^
b0 s
b0 u
b0 +
b0 r
b10 0
b10 o
b11111111111111111111111111100000 )
b11111111111111111111111111100000 F
b11111111111111111111111111100000 d
b11111111111111111111111111100000 v
b10011 E
b100 B
b100 n
b11111110000000010000000100010011 %
b11111110000000010000000100010011 D
b100 A
b100 U
b100 c
b100 k
b0 @
b0 e
b0 j
b0 C
b0 a
b0 g
1!
#4000
b11000000 '
b11000000 V
b11000000 t
b11000000 &
b11000000 R
b11000000 S
b110000 _
b11000000 :
b11000000 J
b11000000 P
b11000000 [
b11100000 $
b11100000 G
b11100000 ,
b11100000 i
b11100000 q
0!
#6000
b11111100 '
b11111100 V
b11111100 t
b11111100 &
b11111100 R
b11111100 S
b111111 _
b0 ;
b0 N
b0 Y
12
0.
b11111100 :
b11111100 J
b11111100 P
b11111100 [
b110 Z
b10 \
b0 =
b0 I
b0 O
b11100 <
b11100 H
b11100 w
b100011 1
b100011 W
b0 6
b0 L
b10 M
b10 7
b10 K
b1000 +
b1000 r
b11100 0
b11100 o
b11100 )
b11100 F
b11100 d
b11100 v
b100011 E
b1000 B
b1000 n
b100000 ?
b100000 f
b100000 l
b100000010010111000100011 %
b100000010010111000100011 D
b1000 A
b1000 U
b1000 c
b1000 k
b100 @
b100 e
b100 j
b100 C
b100 a
b100 g
1!
1"
#8000
0!
#10000
b11111000 '
b11111000 V
b11111000 t
b11111000 &
b11111000 R
b11111000 S
b111110 _
b11111000 :
b11111000 J
b11111000 P
b11111000 [
b11000 <
b11000 H
b11000 w
b11011000 *
b11011000 ^
b11011000 s
b11011000 u
b1 +
b1 r
b11000 0
b11000 o
b11000 )
b11000 F
b11000 d
b11000 v
b1100 B
b1100 n
b100000 ?
b100000 f
b100000 l
b100010010110000100011 %
b100010010110000100011 D
b1100 A
b1100 U
b1100 c
b1100 k
b1000 @
b1000 e
b1000 j
b1000 C
b1000 a
b1000 g
1!
#12000
0!
#14000
b11110000 '
b11110000 V
b11110000 t
b11110000 &
b11110000 R
b11110000 S
b111100 _
b11 ;
b11 N
b11 Y
02
1.
b11110000 :
b11110000 J
b11110000 P
b11110000 [
b11011 Z
b0 \
b10000 <
b10000 H
b10000 w
b10011 1
b10011 W
b0 M
b0 7
b0 K
b0 *
b0 ^
b0 s
b0 u
b10000 +
b10000 r
b1000 0
b1000 o
b10000 )
b10000 F
b10000 d
b10000 v
b10011 E
b10000 B
b10000 n
b11100 ?
b11100 f
b11100 l
b1000000010000010000010011 %
b1000000010000010000010011 D
b10000 A
b10000 U
b10000 c
b10000 k
b1100 @
b1100 e
b1100 j
b1100 C
b1100 a
b1100 g
1!
#16000
0!
#18000
b11101100 '
b11101100 V
b11101100 t
b0 ;
b0 N
b0 Y
12
0.
b11101100 &
b11101100 R
b11101100 S
b111011 _
b110 Z
b10 \
b0 =
b0 I
b0 O
b11101100 :
b11101100 J
b11101100 P
b11101100 [
b11111111111111111111111111111100 <
b11111111111111111111111111111100 H
b11111111111111111111111111111100 w
b100011 1
b100011 W
b1111111 6
b1111111 L
b1010 M
b10 7
b10 K
b11110000 $
b11110000 G
b11110000 ,
b11110000 i
b11110000 q
b1000 -
b1000 p
b10 *
b10 ^
b10 s
b10 u
b1010 +
b1010 r
b11100 0
b11100 o
b11111111111111111111111111111100 )
b11111111111111111111111111111100 F
b11111111111111111111111111111100 d
b11111111111111111111111111111100 v
b100011 E
b10100 B
b10100 n
b1100 ?
b1100 f
b1100 l
b11111110101001000010111000100011 %
b11111110101001000010111000100011 D
b10100 A
b10100 U
b10100 c
b10100 k
b10000 @
b10000 e
b10000 j
b10000 C
b10000 a
b10000 g
1!
#20000
0!
#22000
b11110000 '
b11110000 V
b11110000 t
b11110000 &
b11110000 R
b11110000 S
b111100 _
b11 ;
b11 N
b11 Y
02
1.
b11110000 :
b11110000 J
b11110000 P
b11110000 [
b11011 Z
b0 \
b0 <
b0 H
b0 w
b10011 1
b10011 W
b0 6
b0 L
b0 M
b0 7
b0 K
b0 *
b0 ^
b0 s
b0 u
b0 +
b0 r
b1010 0
b1010 o
b0 )
b0 F
b0 d
b0 v
b10011 E
b11000 B
b11000 n
b10100 ?
b10100 f
b10100 l
b1000000010100010011 %
b1000000010100010011 D
b11000 A
b11000 U
b11000 c
b11000 k
b10100 @
b10100 e
b10100 j
b10100 C
b10100 a
b10100 g
1!
#24000
0!
#26000
b11101100 '
b11101100 V
b11101100 t
b11101100 &
b11101100 R
b11101100 S
b111011 _
b11101100 :
b11101100 J
b11101100 P
b11101100 [
b1000 M
b11111111111111111111111111111100 <
b11111111111111111111111111111100 H
b11111111111111111111111111111100 w
b1111111 6
b1111111 L
b1010 -
b1010 p
b11100 +
b11100 r
b11111111111111111111111111111100 )
b11111111111111111111111111111100 F
b11111111111111111111111111111100 d
b11111111111111111111111111111100 v
b11100 B
b11100 n
b10100 ?
b10100 f
b10100 l
b11111111110001010000010100010011 %
b11111111110001010000010100010011 D
b11100 A
b11100 U
b11100 c
b11100 k
b11000 @
b11000 e
b11000 j
b11000 C
b11000 a
b11000 g
1!
#28000
b11101000 '
b11101000 V
b11101000 t
b11101000 &
b11101000 R
b11101000 S
b111010 _
b11101000 :
b11101000 J
b11101000 P
b11101000 [
b11101100 $
b11101100 G
b11101100 ,
b11101100 i
b11101100 q
0!
#30000
b10 /
b10 Q
b10 `
b10 '
b10 V
b10 t
b10 &
b10 R
b10 S
b111011 _
14
13
b0 ;
b0 N
b0 Y
b11101100 :
b11101100 J
b11101100 P
b11101100 [
b1100011 Z
b10 \
b0 =
b0 I
b0 O
b0 <
b0 H
b0 w
b11 1
b11 W
b0 6
b0 L
b10 M
b10 7
b10 K
b0 +
b0 r
b0 )
b0 F
b0 d
b0 v
b11 E
b100000 B
b100000 n
b11100 ?
b11100 f
b11100 l
b1010010010100000011 %
b1010010010100000011 D
b100000 A
b100000 U
b100000 c
b100000 k
b11100 @
b11100 e
b11100 j
b11100 C
b11100 a
b11100 g
1!
#32000
b0 '
b0 V
b0 t
b0 &
b0 R
b0 S
b0 /
b0 Q
b0 `
b0 _
b10 :
b10 J
b10 P
b10 [
b10 $
b10 G
b10 ,
b10 i
b10 q
0!
#34000
04
03
b11 ;
b11 N
b11 Y
b11011 Z
b0 \
b0 :
b0 J
b0 P
b0 [
b10011 1
b10011 W
b0 M
b0 7
b0 K
b0 $
b0 G
b0 ,
b0 i
b0 q
b0 -
b0 p
b1011 0
b1011 o
b10011 E
b100100 B
b100100 n
b100000 ?
b100000 f
b100000 l
b10110010011 %
b10110010011 D
b100100 A
b100100 U
b100100 c
b100100 k
b100000 @
b100000 e
b100000 j
b100000 C
b100000 a
b100000 g
1!
#36000
0!
#38000
b1 =
b1 I
b1 O
b10 '
b10 V
b10 t
18
b1 ;
b1 N
b1 Y
09
0.
b10 &
b10 R
b10 S
b0 _
b10001000 Z
b10 :
b10 J
b10 P
b10 [
b0 <
b0 H
b0 w
b1100011 1
b1100011 W
b10 $
b10 G
b10 ,
b10 i
b10 q
b1010 -
b1010 p
b1011 +
b1011 r
b1100 0
b1100 o
b1100 )
b1100 F
b1100 d
b1100 v
b1100011 E
b101000 B
b101000 n
b110000 ?
b110000 f
b110000 l
b101101010000011001100011 %
b101101010000011001100011 D
b101000 A
b101000 U
b101000 c
b101000 k
b100100 @
b100100 e
b100100 j
b100100 C
b100100 a
b100100 g
1!
#40000
0!
#42000
b0 =
b0 I
b0 O
0m
b0 '
b0 V
b0 t
08
b11 ;
b11 N
b11 Y
19
1.
0(
b0 &
b0 R
b0 S
b11011 Z
0>
b0 :
b0 J
b0 P
b0 [
b10011 1
b10011 W
b0 $
b0 G
b0 ,
b0 i
b0 q
b0 -
b0 p
b0 +
b0 r
b1010 0
b1010 o
b0 )
b0 F
b0 d
b0 v
b10011 E
b101100 B
b101100 n
b101000 ?
b101000 f
b101000 l
b10100010011 %
b10100010011 D
b101100 A
b101100 U
b101100 c
b101100 k
b101000 @
b101000 e
b101000 j
b101000 C
b101000 a
b101000 g
1!
#44000
0!
#46000
1m
b110000 '
b110000 V
b110000 t
1T
b11110000 &
b11110000 R
b11110000 S
b111100 _
b10 5
b10 X
b0 ;
b0 N
b0 Y
09
b11110000 :
b11110000 J
b11110000 P
b11110000 [
b1000000001 Z
b11110000 <
b11110000 H
b11110000 w
b1101111 1
b1101111 W
b11110000 *
b11110000 ^
b11110000 s
b11110000 u
b1000 +
b1000 r
b0 0
b0 o
b1000 )
b1000 F
b1000 d
b1000 v
b1101111 E
b110100 B
b110100 n
b110100 ?
b110100 f
b110100 l
b100000000000000001101111 %
b100000000000000001101111 D
b110000 A
b110000 U
b110000 c
b110000 k
b101100 @
b101100 e
b101100 j
b101100 C
b101100 a
b101100 g
1!
#48000
b0 $
b0 G
b0 ,
b0 i
b0 q
0!
#50000
0m
0T
b0 &
b0 R
b0 S
b0 _
b0 5
b0 X
b11 ;
b11 N
b11 Y
19
b0 :
b0 J
b0 P
b0 [
b11011 Z
b0 <
b0 H
b0 w
b10011 1
b10011 W
b0 *
b0 ^
b0 s
b0 u
b0 +
b0 r
b0 )
b0 F
b0 d
b0 v
b10011 E
b0 '
b0 V
b0 t
b111000 B
b111000 n
b110100 ?
b110100 f
b110100 l
b10011 %
b10011 D
b111000 A
b111000 U
b111000 c
b111000 k
b110100 @
b110100 e
b110100 j
b110100 C
b110100 a
b110100 g
1!
#52000
0!
#54000
1m
1(
1>
b0 '
b0 V
b0 t
b1 =
b1 I
b1 O
b0 &
b0 R
b0 S
b0 _
18
b1 ;
b1 N
b1 Y
09
0.
b0 :
b0 J
b0 P
b0 [
b10001000 Z
b0 <
b0 H
b0 w
b1100011 1
b1100011 W
b1010 -
b1010 p
b10000 0
b10000 o
b10000 )
b10000 F
b10000 d
b10000 v
b1100011 E
b1001000 B
b1001000 n
b1001000 ?
b1001000 f
b1001000 l
b1010000100001100011 %
b1010000100001100011 D
b111100 A
b111100 U
b111100 c
b111100 k
b111000 @
b111000 e
b111000 j
b111000 C
b111000 a
b111000 g
1!
#56000
0!
#58000
b0 =
b0 I
b0 O
0m
b11110000 '
b11110000 V
b11110000 t
08
b11 ;
b11 N
b11 Y
19
1.
0(
b11110000 &
b11110000 R
b11110000 S
b111100 _
b11011 Z
0>
b11110000 :
b11110000 J
b11110000 P
b11110000 [
b10011 1
b10011 W
b11110000 $
b11110000 G
b11110000 ,
b11110000 i
b11110000 q
b1000 -
b1000 p
b1010 0
b1010 o
b0 )
b0 F
b0 d
b0 v
b10011 E
b1001100 B
b1001100 n
b1001000 ?
b1001000 f
b1001000 l
b1000000010100010011 %
b1000000010100010011 D
b1001100 A
b1001100 U
b1001100 c
b1001100 k
b1001000 @
b1001000 e
b1001000 j
b1001000 C
b1001000 a
b1001000 g
1!
#60000
0!
#62000
b11101100 '
b11101100 V
b11101100 t
b11101100 &
b11101100 R
b11101100 S
b111011 _
b11101100 :
b11101100 J
b11101100 P
b11101100 [
b1000 M
b11111111111111111111111111111100 <
b11111111111111111111111111111100 H
b11111111111111111111111111111100 w
b1111111 6
b1111111 L
b1010 -
b1010 p
b11100 +
b11100 r
b11111111111111111111111111111100 )
b11111111111111111111111111111100 F
b11111111111111111111111111111100 d
b11111111111111111111111111111100 v
b1010000 B
b1010000 n
b1001000 ?
b1001000 f
b1001000 l
b11111111110001010000010100010011 %
b11111111110001010000010100010011 D
b1010000 A
b1010000 U
b1010000 c
b1010000 k
b1001100 @
b1001100 e
b1001100 j
b1001100 C
b1001100 a
b1001100 g
1!
#64000
b11101000 '
b11101000 V
b11101000 t
b11101000 &
b11101000 R
b11101000 S
b111010 _
b11101000 :
b11101000 J
b11101000 P
b11101000 [
b11101100 $
b11101100 G
b11101100 ,
b11101100 i
b11101100 q
0!
#66000
b10 /
b10 Q
b10 `
b10 '
b10 V
b10 t
b10 &
b10 R
b10 S
b111011 _
14
13
b0 ;
b0 N
b0 Y
b11101100 :
b11101100 J
b11101100 P
b11101100 [
b1100011 Z
b10 \
b0 =
b0 I
b0 O
b0 <
b0 H
b0 w
b11 1
b11 W
b0 6
b0 L
b10 M
b10 7
b10 K
b0 +
b0 r
b0 )
b0 F
b0 d
b0 v
b11 E
b1010100 B
b1010100 n
b1010000 ?
b1010000 f
b1010000 l
b1010010010100000011 %
b1010010010100000011 D
b1010100 A
b1010100 U
b1010100 c
b1010100 k
b1010000 @
b1010000 e
b1010000 j
b1010000 C
b1010000 a
b1010000 g
1!
#68000
b0 '
b0 V
b0 t
b0 &
b0 R
b0 S
b0 /
b0 Q
b0 `
b0 _
b10 :
b10 J
b10 P
b10 [
b10 $
b10 G
b10 ,
b10 i
b10 q
0!
#70000
b1 '
b1 V
b1 t
b1 &
b1 R
b1 S
04
03
b11 ;
b11 N
b11 Y
b11011 Z
b0 \
b1 :
b1 J
b1 P
b1 [
b1 <
b1 H
b1 w
b10011 1
b10011 W
b0 M
b0 7
b0 K
b0 $
b0 G
b0 ,
b0 i
b0 q
b0 -
b0 p
b11011000 *
b11011000 ^
b11011000 s
b11011000 u
b1 +
b1 r
b1011 0
b1011 o
b1 )
b1 F
b1 d
b1 v
b10011 E
b1011000 B
b1011000 n
b1010101 ?
b1010101 f
b1010101 l
b100000000010110010011 %
b100000000010110010011 D
b1011000 A
b1011000 U
b1011000 c
b1011000 k
b1010100 @
b1010100 e
b1010100 j
b1010100 C
b1010100 a
b1010100 g
1!
#72000
0!
#74000
b1 =
b1 I
b1 O
b1 '
b1 V
b1 t
18
b1 ;
b1 N
b1 Y
09
0.
b1 &
b1 R
b1 S
b0 _
b10001000 Z
b1 :
b1 J
b1 P
b1 [
b1 <
b1 H
b1 w
b1100011 1
b1100011 W
b10 $
b10 G
b10 ,
b10 i
b10 q
b1010 -
b1010 p
b1 *
b1 ^
b1 s
b1 u
b1011 +
b1011 r
b1100 0
b1100 o
b1100 )
b1100 F
b1100 d
b1100 v
b1100011 E
b1011100 B
b1011100 n
b1100100 ?
b1100100 f
b1100100 l
b101101010000011001100011 %
b101101010000011001100011 D
b1011100 A
b1011100 U
b1011100 c
b1011100 k
b1011000 @
b1011000 e
b1011000 j
b1011000 C
b1011000 a
b1011000 g
1!
#76000
0!
#78000
b0 =
b0 I
b0 O
0m
b0 '
b0 V
b0 t
08
b11 ;
b11 N
b11 Y
19
1.
0(
b0 &
b0 R
b0 S
b11011 Z
0>
b0 :
b0 J
b0 P
b0 [
b0 <
b0 H
b0 w
b10011 1
b10011 W
b0 $
b0 G
b0 ,
b0 i
b0 q
b0 -
b0 p
b0 *
b0 ^
b0 s
b0 u
b0 +
b0 r
b1010 0
b1010 o
b0 )
b0 F
b0 d
b0 v
b10011 E
b1100000 B
b1100000 n
b1011100 ?
b1011100 f
b1011100 l
b10100010011 %
b10100010011 D
b1100000 A
b1100000 U
b1100000 c
b1100000 k
b1011100 @
b1011100 e
b1011100 j
b1011100 C
b1011100 a
b1011100 g
1!
#80000
0!
#82000
1m
b1100100 '
b1100100 V
b1100100 t
1T
b11110000 &
b11110000 R
b11110000 S
b111100 _
b10 5
b10 X
b0 ;
b0 N
b0 Y
09
b11110000 :
b11110000 J
b11110000 P
b11110000 [
b1000000001 Z
b11110000 <
b11110000 H
b11110000 w
b1101111 1
b1101111 W
b11110000 *
b11110000 ^
b11110000 s
b11110000 u
b1000 +
b1000 r
b0 0
b0 o
b1000 )
b1000 F
b1000 d
b1000 v
b1101111 E
b1101000 B
b1101000 n
b1101000 ?
b1101000 f
b1101000 l
b100000000000000001101111 %
b100000000000000001101111 D
b1100100 A
b1100100 U
b1100100 c
b1100100 k
b1100000 @
b1100000 e
b1100000 j
b1100000 C
b1100000 a
b1100000 g
1!
#84000
b0 $
b0 G
b0 ,
b0 i
b0 q
0!
#86000
0m
0T
b0 &
b0 R
b0 S
b0 _
b0 5
b0 X
b11 ;
b11 N
b11 Y
19
b0 :
b0 J
b0 P
b0 [
b11011 Z
b0 <
b0 H
b0 w
b10011 1
b10011 W
b0 *
b0 ^
b0 s
b0 u
b0 +
b0 r
b0 )
b0 F
b0 d
b0 v
b10011 E
b0 '
b0 V
b0 t
b1101100 B
b1101100 n
b1101000 ?
b1101000 f
b1101000 l
b10011 %
b10011 D
b1101100 A
b1101100 U
b1101100 c
b1101100 k
b1101000 @
b1101000 e
b1101000 j
b1101000 C
b1101000 a
b1101000 g
1!
#88000
0!
#90000
1m
1(
1>
b0 '
b0 V
b0 t
b1 =
b1 I
b1 O
b0 &
b0 R
b0 S
b0 _
18
b1 ;
b1 N
b1 Y
09
0.
b0 :
b0 J
b0 P
b0 [
b10001000 Z
b0 <
b0 H
b0 w
b1100011 1
b1100011 W
b1010 -
b1010 p
b10000 0
b10000 o
b10000 )
b10000 F
b10000 d
b10000 v
b1100011 E
b1111100 B
b1111100 n
b1111100 ?
b1111100 f
b1111100 l
b1010000100001100011 %
b1010000100001100011 D
b1110000 A
b1110000 U
b1110000 c
b1110000 k
b1101100 @
b1101100 e
b1101100 j
b1101100 C
b1101100 a
b1101100 g
1!
#92000
0!
#94000
b0 =
b0 I
b0 O
0m
b11110000 '
b11110000 V
b11110000 t
08
b11 ;
b11 N
b11 Y
19
1.
0(
b11110000 &
b11110000 R
b11110000 S
b111100 _
b11011 Z
0>
b11110000 :
b11110000 J
b11110000 P
b11110000 [
b10011 1
b10011 W
b11110000 $
b11110000 G
b11110000 ,
b11110000 i
b11110000 q
b1000 -
b1000 p
b1010 0
b1010 o
b0 )
b0 F
b0 d
b0 v
b10011 E
b10000000 B
b10000000 n
b1111100 ?
b1111100 f
b1111100 l
b1000000010100010011 %
b1000000010100010011 D
b10000000 A
b10000000 U
b10000000 c
b10000000 k
b1111100 @
b1111100 e
b1111100 j
b1111100 C
b1111100 a
b1111100 g
1!
#96000
0!
#98000
b11101100 '
b11101100 V
b11101100 t
b11101100 &
b11101100 R
b11101100 S
b111011 _
b11101100 :
b11101100 J
b11101100 P
b11101100 [
b1000 M
b11111111111111111111111111111100 <
b11111111111111111111111111111100 H
b11111111111111111111111111111100 w
b1111111 6
b1111111 L
b1010 -
b1010 p
b11100 +
b11100 r
b11111111111111111111111111111100 )
b11111111111111111111111111111100 F
b11111111111111111111111111111100 d
b11111111111111111111111111111100 v
b10000100 B
b10000100 n
b1111100 ?
b1111100 f
b1111100 l
b11111111110001010000010100010011 %
b11111111110001010000010100010011 D
b10000100 A
b10000100 U
b10000100 c
b10000100 k
b10000000 @
b10000000 e
b10000000 j
b10000000 C
b10000000 a
b10000000 g
1!
#100000
b11101000 '
b11101000 V
b11101000 t
b11101000 &
b11101000 R
b11101000 S
b111010 _
b11101000 :
b11101000 J
b11101000 P
b11101000 [
b11101100 $
b11101100 G
b11101100 ,
b11101100 i
b11101100 q
0!
#102000
b10 /
b10 Q
b10 `
b10 '
b10 V
b10 t
b10 &
b10 R
b10 S
b111011 _
14
13
b0 ;
b0 N
b0 Y
b11101100 :
b11101100 J
b11101100 P
b11101100 [
b1100011 Z
b10 \
b0 =
b0 I
b0 O
b0 <
b0 H
b0 w
b11 1
b11 W
b0 6
b0 L
b10 M
b10 7
b10 K
b0 +
b0 r
b0 )
b0 F
b0 d
b0 v
b11 E
b10001000 B
b10001000 n
b10000100 ?
b10000100 f
b10000100 l
b1010010010100000011 %
b1010010010100000011 D
b10001000 A
b10001000 U
b10001000 c
b10001000 k
b10000100 @
b10000100 e
b10000100 j
b10000100 C
b10000100 a
b10000100 g
1!
#104000
b0 '
b0 V
b0 t
b0 &
b0 R
b0 S
b0 /
b0 Q
b0 `
b0 _
b10 :
b10 J
b10 P
b10 [
b10 $
b10 G
b10 ,
b10 i
b10 q
0!
#106000
b1 '
b1 V
b1 t
b1 &
b1 R
b1 S
04
03
b11 ;
b11 N
b11 Y
b11011 Z
b0 \
b1 :
b1 J
b1 P
b1 [
b1 <
b1 H
b1 w
b10011 1
b10011 W
b0 M
b0 7
b0 K
b0 $
b0 G
b0 ,
b0 i
b0 q
b0 -
b0 p
b11011000 *
b11011000 ^
b11011000 s
b11011000 u
b1 +
b1 r
b1011 0
b1011 o
b1 )
b1 F
b1 d
b1 v
b10011 E
b10001100 B
b10001100 n
b10001001 ?
b10001001 f
b10001001 l
b100000000010110010011 %
b100000000010110010011 D
b10001100 A
b10001100 U
b10001100 c
b10001100 k
b10001000 @
b10001000 e
b10001000 j
b10001000 C
b10001000 a
b10001000 g
1!
#108000
0!
#110000
b1 =
b1 I
b1 O
b1 '
b1 V
b1 t
b10 ;
b10 N
b10 Y
09
b1 &
b1 R
b1 S
b10001 Z
b1000 M
b1 :
b1 J
b1 P
b1 [
b1 <
b1 H
b1 w
b110011 1
b110011 W
b100000 6
b100000 L
b10 $
b10 G
b10 ,
b10 i
b10 q
b1010 -
b1010 p
b1 *
b1 ^
b1 s
b1 u
b1011 +
b1011 r
b1010 0
b1010 o
b0 )
b0 F
b0 d
b0 v
b110011 E
b10010000 B
b10010000 n
b10001100 ?
b10001100 f
b10001100 l
b1000000101101010000010100110011 %
b1000000101101010000010100110011 D
b10010000 A
b10010000 U
b10010000 c
b10010000 k
b10001100 @
b10001100 e
b10001100 j
b10001100 C
b10001100 a
b10001100 g
1!
#112000
b0 '
b0 V
b0 t
b0 &
b0 R
b0 S
1>
b0 :
b0 J
b0 P
b0 [
b1 $
b1 G
b1 ,
b1 i
b1 q
0!
#114000
b10010100 '
b10010100 V
b10010100 t
1m
1T
b10 5
b10 X
b0 ;
b0 N
b0 Y
0>
b1000000001 Z
b11 \
1]
b0 =
b0 I
b0 O
b0 <
b0 H
b0 w
b1101111 1
b1101111 W
b1111011 6
b1111011 L
b1111 M
b111 7
b111 K
b0 $
b0 G
b0 ,
b0 i
b0 q
b11111 -
b11111 p
b0 *
b0 ^
b0 s
b0 u
b10001 +
b10001 r
b1 0
b1 o
b11111111111111111111111101110000 )
b11111111111111111111111101110000 F
b11111111111111111111111101110000 d
b11111111111111111111111101110000 v
b1101111 E
b0 B
b0 n
b0 ?
b0 f
b0 l
b11110111000111111111000011101111 %
b11110111000111111111000011101111 D
b10010100 A
b10010100 U
b10010100 c
b10010100 k
b10010000 @
b10010000 e
b10010000 j
b10010000 C
b10010000 a
b10010000 g
1!
#116000
0!
#118000
0m
0T
b11111111111111111111111111100000 <
b11111111111111111111111111100000 H
b11111111111111111111111111100000 w
b0 5
b0 X
b11 ;
b11 N
b11 Y
19
b11000000 &
b11000000 R
b11000000 S
b110000 _
b11011 Z
b0 \
0]
b11000000 :
b11000000 J
b11000000 P
b11000000 [
b10011 1
b10011 W
b1111111 6
b1111111 L
b1000 M
b0 7
b0 K
b11100000 $
b11100000 G
b11100000 ,
b11100000 i
b11100000 q
b10 -
b10 p
b0 +
b0 r
b10 0
b10 o
b11111111111111111111111111100000 )
b11111111111111111111111111100000 F
b11111111111111111111111111100000 d
b11111111111111111111111111100000 v
b10011 E
b11000000 '
b11000000 V
b11000000 t
b100 B
b100 n
b11111111111111111111111111100000 ?
b11111111111111111111111111100000 f
b11111111111111111111111111100000 l
b11111110000000010000000100010011 %
b11111110000000010000000100010011 D
b100 A
b100 U
b100 c
b100 k
b0 @
b0 e
b0 j
b0 C
b0 a
b0 g
1!
#120000
b10100000 '
b10100000 V
b10100000 t
b10100000 &
b10100000 R
b10100000 S
b101000 _
b10100000 :
b10100000 J
b10100000 P
b10100000 [
b11000000 $
b11000000 G
b11000000 ,
b11000000 i
b11000000 q
0!
