Computer Organization/Lab1/sim.vcd
$date
	Wed Apr 12 00:50:43 2023
$end
$version
	Icarus Verilog
$end
$timescale
	10ps
$end
$scope module riscv_tb $end
$var reg 1 ! clk $end
$var reg 1 " rstn $end
$var integer 32 # i [31:0] $end
$scope module my_cpu $end
$var wire 32 $ alu_in1 [31:0] $end
$var wire 1 ! clk $end
$var wire 32 % instruction [31:0] $end
$var wire 1 " rstn $end
$var wire 32 & write_data [31:0] $end
$var wire 32 ' wire_data_candi [31:0] $end
$var wire 1 ( wire_data $end
$var wire 1 ) taken $end
$var wire 32 * sextimm [31:0] $end
$var wire 32 + rs2_out [31:0] $end
$var wire 5 , rs2 [4:0] $end
$var wire 32 - rs1_out [31:0] $end
$var wire 5 . rs1 [4:0] $end
$var wire 1 / reg_write $end
$var wire 32 0 read_data [31:0] $end
$var wire 5 1 rd [4:0] $end
$var wire 7 2 opcode [6:0] $end
$var wire 1 3 mem_write $end
$var wire 1 4 mem_to_reg $end
$var wire 1 5 mem_read $end
$var wire 2 6 jump [1:0] $end
$var wire 7 7 funct7 [6:0] $end
$var wire 3 8 funct3 [2:0] $end
$var wire 1 9 branch $end
$var wire 1 : alu_src $end
$var wire 32 ; alu_out [31:0] $end
$var wire 2 < alu_op [1:0] $end
$var wire 32 = alu_in2 [31:0] $end
$var wire 4 > alu_func [3:0] $end
$var wire 1 ? alu_check $end
$var wire 32 @ PC_PLUS_IMM [31:0] $end
$var wire 32 A PC_PLUS_4 [31:0] $end
$var wire 32 B NEXT_PC_candi [31:0] $end
$var wire 32 C NEXT_PC [31:0] $end
$var reg 32 D PC [31:0] $end
$scope module get_imm $end
$var wire 32 E instruction [31:0] $end
$var wire 7 F opcode [6:0] $end
$var reg 32 G sextimm [31:0] $end
$upscope $end
$scope module m_ALU $end
$var wire 32 H in_a [31:0] $end
$var wire 32 I in_b [31:0] $end
$var wire 4 J alu_func [3:0] $end
$var reg 1 ? check $end
$var reg 32 K result [31:0] $end
$upscope $end
$scope module m_ALU_control $end
$var wire 3 L funct3 [2:0] $end
$var wire 7 M funct7 [6:0] $end
$var wire 4 N funct [3:0] $end
$var wire 2 O alu_op [1:0] $end
$var reg 4 P alu_func [3:0] $end
$upscope $end
$scope module m_WB_mux1 $end
$var wire 1 4 select $end
$var wire 32 Q in2 [31:0] $end
$var wire 32 R in1 [31:0] $end
$var reg 32 S out [31:0] $end
$upscope $end
$scope module m_WB_mux2 $end
$var wire 32 T in1 [31:0] $end
$var wire 1 U select $end
$var wire 32 V in2 [31:0] $end
$var reg 32 W out [31:0] $end
$upscope $end
$scope module m_branch_control $end
$var wire 1 ? check $end
$var wire 1 9 branch $end
$var reg 1 ) taken $end
$upscope $end
$scope module m_control $end
$var wire 7 X opcode [6:0] $end
$var wire 1 / reg_write $end
$var wire 1 3 mem_write $end
$var wire 1 4 mem_to_reg $end
$var wire 1 5 mem_read $end
$var wire 2 Y jump [1:0] $end
$var wire 1 9 branch $end
$var wire 1 : alu_src $end
$var wire 2 Z alu_op [1:0] $end
$var reg 10 [ controls [9:0] $end
$upscope $end
$scope module m_data_memory $end
$var wire 32 \ address [31:0] $end
$var wire 1 ! clk $end
$var wire 2 ] maskmode [1:0] $end
$var wire 1 5 mem_read $end
$var wire 1 3 mem_write $end
$var wire 1 ^ sext $end
$var wire 32 _ write_data [31:0] $end
$var wire 8 ` address_internal [7:0] $end
$var reg 32 a read_data [31:0] $end
$upscope $end
$scope module m_next_pc_adder $end
$var wire 32 b in_a [31:0] $end
$var wire 32 c in_b [31:0] $end
$var reg 32 d result [31:0] $end
$upscope $end
$scope module m_next_pc_adder2 $end
$var wire 32 e in_a [31:0] $end
$var wire 32 f in_b [31:0] $end
$var reg 32 g result [31:0] $end
$upscope $end
$scope module m_next_pc_mux1 $end
$var wire 32 h in1 [31:0] $end
$var wire 32 i in2 [31:0] $end
$var wire 1 j select $end
$var reg 32 k out [31:0] $end
$upscope $end
$scope module m_next_pc_mux2 $end
$var wire 32 l in1 [31:0] $end
$var wire 1 m select $end
$var wire 32 n in2 [31:0] $end
$var reg 32 o out [31:0] $end
$upscope $end
$scope module m_register_file $end
$var wire 1 ! clk $end
$var wire 5 p rd [4:0] $end
$var wire 1 / reg_write $end
$var wire 5 q rs1 [4:0] $end
$var wire 32 r rs1_out [31:0] $end
$var wire 5 s rs2 [4:0] $end
$var wire 32 t rs2_out [31:0] $end
$var wire 32 u write_data [31:0] $end
$upscope $end
$scope module mux_alu_src $end
$var wire 32 v in1 [31:0] $end
$var wire 32 w in2 [31:0] $end
$var wire 1 : select $end
$var reg 32 x out [31:0] $end
$upscope $end
$upscope $end
$upscope $end
$enddefinitions $end
#0
$dumpvars
bx x
bx w
bx v
bz u
bx t
bx s
bx r
bx q
bx p
bx o
bx n
xm
bx l
bx k
xj
bx i
bx h
bx g
bx f
bx e
bx d
b100 c
bx b
b0 a
bx `
bx _
0^
b0 ]
bx \
bx [
bx Z
bx Y
bx X
b0 W
bx V
xU
b0 T
b0 S
bx R
b0 Q
bx P
bx O
bx N
bx M
bx L
bx K
bx J
bx I
bx H
bx G
bx F
bx E
bx D
bx C
bx B
bx A
bx @
x?
bx >
bx =
bx <
bx ;
x:
x9
bx 8
bx 7
bx 6
x5
x4
x3
bx 2
bx 1
b0 0
x/
bx .
bx -
bx ,
bx +
bx *
x)
0(
b0 '
bz &
bx %
bx $
b1000000 #
0"
0!
$end
#2000
1(
0j
b1 W
0U
0m
b1 '
b1 S
b1 T
b0 6
b0 Y
09
05
04
b10 <
b10 O
b10 Z
03
0:
1/
0)
b0 `
b10001 [
b0 >
b0 J
b0 P
0?
b11 ;
b11 K
b11 \
b0 @
b0 g
b0 i
b10 =
b10 I
b10 x
b100 C
b100 o
b110011 2
b110011 X
b0 7
b0 M
b0 N
b0 8
b0 L
b1 $
b1 H
b1 -
b1 R
b1 n
b1 r
b1 .
b1 q
b10 +
b10 _
b10 t
b10 v
b10 ,
b10 s
b10000 1
b10000 p
b0 *
b0 G
b0 f
b0 w
b110011 F
b100 B
b100 k
b100 l
b1000001000100000110011 %
b1000001000100000110011 E
b100 A
b100 V
b100 d
b100 h
b0 D
b0 b
b0 e
1!
#4000
0!
#6000
0(
b11111111 `
b100 W
b1 >
b1 J
b1 P
b1000 N
b11111111111111111111111111111100 ;
b11111111111111111111111111111100 K
b11111111111111111111111111111100 \
b100 '
b100 S
b100 T
b1000 =
b1000 I
b1000 x
b1000 C
b1000 o
b100000 7
b100000 M
b100 $
b100 H
b100 -
b100 R
b100 n
b100 r
b100 .
b100 q
b1000 +
b1000 _
b1000 t
b1000 v
b1000 ,
b1000 s
b10001 1
b10001 p
b1000 B
b1000 k
b1000 l
b1000000100000100000100010110011 %
b1000000100000100000100010110011 E
b1000 A
b1000 V
b1000 d
b1000 h
b100 @
b100 g
b100 i
b100 D
b100 b
b100 e
1!
1"
#8000
0!
#10000
1?
b1 `
1(
b11 W
b10 >
b10 J
b10 P
b110 ;
b110 K
b110 \
b11 '
b11 S
b11 T
b101 =
b101 I
b101 x
b1100 C
b1100 o
b0 7
b0 M
b100 N
b100 8
b100 L
b11 $
b11 H
b11 -
b11 R
b11 n
b11 r
b11 .
b11 q
b101 +
b101 _
b101 t
b101 v
b101 ,
b101 s
b10010 1
b10010 p
b1100 B
b1100 k
b1100 l
b10100011100100100110011 %
b10100011100100100110011 E
b1100 A
b1100 V
b1100 d
b1100 h
b1000 @
b1000 g
b1000 i
b1000 D
b1000 b
b1000 e
1!
#12000
0!
#14000
0?
b111 ;
b111 K
b111 \
b11 >
b11 J
b11 P
b10000 C
b10000 o
b110 N
b110 8
b110 L
b10011 1
b10011 p
b10000 B
b10000 k
b10000 l
b10100011110100110110011 %
b10100011110100110110011 E
b10000 A
b10000 V
b10000 d
b10000 h
b1100 @
b1100 g
b1100 i
b1100 D
b1100 b
b1100 e
1!
#16000
0!
#18000
b0 `
b1 ;
b1 K
b1 \
b101 W
b100 >
b100 J
b100 P
b101 '
b101 S
b101 T
b11 =
b11 I
b11 x
b10100 C
b10100 o
b111 N
b111 8
b111 L
b101 $
b101 H
b101 -
b101 R
b101 n
b101 r
b101 .
b101 q
b11 +
b11 _
b11 t
b11 v
b11 ,
b11 s
b10100 1
b10100 p
b10100 B
b10100 k
b10100 l
b1100101111101000110011 %
b1100101111101000110011 E
b10100 A
b10100 V
b10100 d
b10100 h
b10000 @
b10000 g
b10000 i
b10000 D
b10000 b
b10000 e
1!
#20000
0!
#22000
b11111110 `
b1 W
b1 >
b1 J
b1 P
b11111111111111111111111111111011 ;
b11111111111111111111111111111011 K
b11111111111111111111111111111011 \
b1 '
b1 S
b1 T
b110 =
b110 I
b110 x
b11000 C
b11000 o
b100000 7
b100000 M
b1000 N
b0 8
b0 L
b1 $
b1 H
b1 -
b1 R
b1 n
b1 r
b1 .
b1 q
b110 +
b110 _
b110 t
b110 v
b110 ,
b110 s
b10101 1
b10101 p
b11000 B
b11000 k
b11000 l
b1000000011000001000101010110011 %
b1000000011000001000101010110011 E
b11000 A
b11000 V
b11000 d
b11000 h
b10100 @
b10100 g
b10100 i
b10100 D
b10100 b
b10100 e
1!
#24000
0!
#26000
0(
b11 <
b11 O
b11 Z
1:
b0 `
b0 W
b11011 [
b0 >
b0 J
b0 P
b0 N
0?
b0 ;
b0 K
b0 \
b0 '
b0 S
b0 T
b0 =
b0 I
b0 x
b11100 C
b11100 o
b10011 2
b10011 X
b0 7
b0 M
b0 $
b0 H
b0 -
b0 R
b0 n
b0 r
b0 .
b0 q
b0 +
b0 _
b0 t
b0 v
b0 ,
b0 s
b0 1
b0 p
b10011 F
b11100 B
b11100 k
b11100 l
b10011 %
b10011 E
b11100 A
b11100 V
b11100 d
b11100 h
b11000 @
b11000 g
b11000 i
b11000 D
b11000 b
b11000 e
1!
#28000
b0 $
b0 H
b0 -
b0 R
b0 n
b0 r
b0 +
b0 _
b0 t
b0 v
0!
#30000
b100000 C
b100000 o
b100000 B
b100000 k
b100000 l
b100000 A
b100000 V
b100000 d
b100000 h
b11100 @
b11100 g
b11100 i
b11100 D
b11100 b
b11100 e
1!
#32000
b0 $
b0 H
b0 -
b0 R
b0 n
b0 r
b0 +
b0 _
b0 t
b0 v
0!
#34000
b100100 C
b100100 o
b100100 B
b100100 k
b100100 l
b100100 A
b100100 V
b100100 d
b100100 h
b100000 @
b100000 g
b100000 i
b100000 D
b100000 b
b100000 e
1!
#36000
b0 $
b0 H
b0 -
b0 R
b0 n
b0 r
b0 +
b0 _
b0 t
b0 v
0!
#38000
b101000 C
b101000 o
b101000 B
b101000 k
b101000 l
b101000 A
b101000 V
b101000 d
b101000 h
b100100 @
b100100 g
b100100 i
b100100 D
b100100 b
b100100 e
1!
#40000
b0 $
b0 H
b0 -
b0 R
b0 n
b0 r
b0 +
b0 _
b0 t
b0 v
0!
#42000
b101100 C
b101100 o
b101100 B
b101100 k
b101100 l
b101100 A
b101100 V
b101100 d
b101100 h
b101000 @
b101000 g
b101000 i
b101000 D
b101000 b
b101000 e
1!
#44000
b0 $
b0 H
b0 -
b0 R
b0 n
b0 r
b0 +
b0 _
b0 t
b0 v
0!
#46000
b110000 C
b110000 o
b110000 B
b110000 k
b110000 l
b110000 A
b110000 V
b110000 d
b110000 h
b101100 @
b101100 g
b101100 i
b101100 D
b101100 b
b101100 e
1!
#48000
b0 $
b0 H
b0 -
b0 R
b0 n
b0 r
b0 +
b0 _
b0 t
b0 v
0!
#50000
b110100 C
b110100 o
b110100 B
b110100 k
b110100 l
b110100 A
b110100 V
b110100 d
b110100 h
b110000 @
b110000 g
b110000 i
b110000 D
b110000 b
b110000 e
1!
#52000
b0 $
b0 H
b0 -
b0 R
b0 n
b0 r
b0 +
b0 _
b0 t
b0 v
0!
#54000
b111000 C
b111000 o
b111000 B
b111000 k
b111000 l
b111000 A
b111000 V
b111000 d
b111000 h
b110100 @
b110100 g
b110100 i
b110100 D
b110100 b
b110100 e
1!
#56000
b0 $
b0 H
b0 -
b0 R
b0 n
b0 r
b0 +
b0 _
b0 t
b0 v
0!
#58000
b111100 C
b111100 o
b111100 B
b111100 k
b111100 l
b111100 A
b111100 V
b111100 d
b111100 h
b111000 @
b111000 g
b111000 i
b111000 D
b111000 b
b111000 e
1!
#60000
b0 $
b0 H
b0 -
b0 R
b0 n
b0 r
b0 +
b0 _
b0 t
b0 v
0!
#62000
b1000000 C
b1000000 o
b1000000 B
b1000000 k
b1000000 l
b1000000 A
b1000000 V
b1000000 d
b1000000 h
b111100 @
b111100 g
b111100 i
b111100 D
b111100 b
b111100 e
1!
#64000
b0 $
b0 H
b0 -
b0 R
b0 n
b0 r
b0 +
b0 _
b0 t
b0 v
0!
#66000
bx =
bx I
bx x
x(
b0 <
b0 O
b0 Z
0:
0/
bx `
bx W
b0 [
b0 >
b0 J
b0 P
bx ;
bx K
bx \
bx '
bx S
bx T
b1000100 C
b1000100 o
bx 2
bx X
bx 7
bx M
bx N
bx 8
bx L
bx $
bx H
bx -
bx R
bx n
bx r
bx .
bx q
bx +
bx _
bx t
bx v
bx ,
bx s
bx 1
bx p
bx F
b1000100 B
b1000100 k
b1000100 l
bx %
bx E
b1000100 A
b1000100 V
b1000100 d
b1000100 h
b1000000 @
b1000000 g
b1000000 i
b1000000 D
b1000000 b
b1000000 e
1!
#68000
0!
#70000
b1001000 C
b1001000 o
b1001000 B
b1001000 k
b1001000 l
b1001000 A
b1001000 V
b1001000 d
b1001000 h
b1000100 @
b1000100 g
b1000100 i
b1000100 D
b1000100 b
b1000100 e
1!
#72000
0!
#74000
b1001100 C
b1001100 o
b1001100 B
b1001100 k
b1001100 l
b1001100 A
b1001100 V
b1001100 d
b1001100 h
b1001000 @
b1001000 g
b1001000 i
b1001000 D
b1001000 b
b1001000 e
1!
#76000
0!
#78000
b1010000 C
b1010000 o
b1010000 B
b1010000 k
b1010000 l
b1010000 A
b1010000 V
b1010000 d
b1010000 h
b1001100 @
b1001100 g
b1001100 i
b1001100 D
b1001100 b
b1001100 e
1!
#80000
0!
#82000
b1010100 C
b1010100 o
b1010100 B
b1010100 k
b1010100 l
b1010100 A
b1010100 V
b1010100 d
b1010100 h
b1010000 @
b1010000 g
b1010000 i
b1010000 D
b1010000 b
b1010000 e
1!
#84000
0!
#86000
b1011000 C
b1011000 o
b1011000 B
b1011000 k
b1011000 l
b1011000 A
b1011000 V
b1011000 d
b1011000 h
b1010100 @
b1010100 g
b1010100 i
b1010100 D
b1010100 b
b1010100 e
1!
#88000
0!
#90000
b1011100 C
b1011100 o
b1011100 B
b1011100 k
b1011100 l
b1011100 A
b1011100 V
b1011100 d
b1011100 h
b1011000 @
b1011000 g
b1011000 i
b1011000 D
b1011000 b
b1011000 e
1!
#92000
0!
#94000
b1100000 C
b1100000 o
b1100000 B
b1100000 k
b1100000 l
b1100000 A
b1100000 V
b1100000 d
b1100000 h
b1011100 @
b1011100 g
b1011100 i
b1011100 D
b1011100 b
b1011100 e
1!
#96000
0!
#98000
b1100100 C
b1100100 o
b1100100 B
b1100100 k
b1100100 l
b1100100 A
b1100100 V
b1100100 d
b1100100 h
b1100000 @
b1100000 g
b1100000 i
b1100000 D
b1100000 b
b1100000 e
1!
#100000
0!
#102000
b1101000 C
b1101000 o
b1101000 B
b1101000 k
b1101000 l
b1101000 A
b1101000 V
b1101000 d
b1101000 h
b1100100 @
b1100100 g
b1100100 i
b1100100 D
b1100100 b
b1100100 e
1!
#104000
0!
#106000
b1101100 C
b1101100 o
b1101100 B
b1101100 k
b1101100 l
b1101100 A
b1101100 V
b1101100 d
b1101100 h
b1101000 @
b1101000 g
b1101000 i
b1101000 D
b1101000 b
b1101000 e
1!
#108000
0!
#110000
b1110000 C
b1110000 o
b1110000 B
b1110000 k
b1110000 l
b1110000 A
b1110000 V
b1110000 d
b1110000 h
b1101100 @
b1101100 g
b1101100 i
b1101100 D
b1101100 b
b1101100 e
1!
#112000
0!
#114000
b1110100 C
b1110100 o
b1110100 B
b1110100 k
b1110100 l
b1110100 A
b1110100 V
b1110100 d
b1110100 h
b1110000 @
b1110000 g
b1110000 i
b1110000 D
b1110000 b
b1110000 e
1!
#116000
0!
#118000
b1111000 C
b1111000 o
b1111000 B
b1111000 k
b1111000 l
b1111000 A
b1111000 V
b1111000 d
b1111000 h
b1110100 @
b1110100 g
b1110100 i
b1110100 D
b1110100 b
b1110100 e
1!
#120000
0!
#122000
b1111100 C
b1111100 o
b1111100 B
b1111100 k
b1111100 l
b1111100 A
b1111100 V
b1111100 d
b1111100 h
b1111000 @
b1111000 g
b1111000 i
b1111000 D
b1111000 b
b1111000 e
1!
#124000
0!
#126000
b10000000 C
b10000000 o
b10000000 B
b10000000 k
b10000000 l
b10000000 A
b10000000 V
b10000000 d
b10000000 h
b1111100 @
b1111100 g
b1111100 i
b1111100 D
b1111100 b
b1111100 e
1!
#128000
0!
#130000
b10000100 C
b10000100 o
b10000100 B
b10000100 k
b10000100 l
b10000100 A
b10000100 V
b10000100 d
b10000100 h
b10000000 @
b10000000 g
b10000000 i
b10000000 D
b10000000 b
b10000000 e
1!
#132000
0!
#134000
b10001000 C
b10001000 o
b10001000 B
b10001000 k
b10001000 l
b10001000 A
b10001000 V
b10001000 d
b10001000 h
b10000100 @
b10000100 g
b10000100 i
b10000100 D
b10000100 b
b10000100 e
1!
#136000
0!
#138000
b10001100 C
b10001100 o
b10001100 B
b10001100 k
b10001100 l
b10001100 A
b10001100 V
b10001100 d
b10001100 h
b10001000 @
b10001000 g
b10001000 i
b10001000 D
b10001000 b
b10001000 e
1!
#140000
0!
#142000
b10010000 C
b10010000 o
b10010000 B
b10010000 k
b10010000 l
b10010000 A
b10010000 V
b10010000 d
b10010000 h
b10001100 @
b10001100 g
b10001100 i
b10001100 D
b10001100 b
b10001100 e
1!
#144000
0!
#146000
b10010100 C
b10010100 o
b10010100 B
b10010100 k
b10010100 l
b10010100 A
b10010100 V
b10010100 d
b10010100 h
b10010000 @
b10010000 g
b10010000 i
b10010000 D
b10010000 b
b10010000 e
1!
#148000
0!
#150000
b10011000 C
b10011000 o
b10011000 B
b10011000 k
b10011000 l
b10011000 A
b10011000 V
b10011000 d
b10011000 h
b10010100 @
b10010100 g
b10010100 i
b10010100 D
b10010100 b
b10010100 e
1!
#152000
0!
#154000
b10011100 C
b10011100 o
b10011100 B
b10011100 k
b10011100 l
b10011100 A
b10011100 V
b10011100 d
b10011100 h
b10011000 @
b10011000 g
b10011000 i
b10011000 D
b10011000 b
b10011000 e
1!
#156000
0!
#158000
b10100000 C
b10100000 o
b10100000 B
b10100000 k
b10100000 l
b10100000 A
b10100000 V
b10100000 d
b10100000 h
b10011100 @
b10011100 g
b10011100 i
b10011100 D
b10011100 b
b10011100 e
1!
#160000
0!
#162000
b10100100 C
b10100100 o
b10100100 B
b10100100 k
b10100100 l
b10100100 A
b10100100 V
b10100100 d
b10100100 h
b10100000 @
b10100000 g
b10100000 i
b10100000 D
b10100000 b
b10100000 e
1!
#164000
0!
#166000
b10101000 C
b10101000 o
b10101000 B
b10101000 k
b10101000 l
b10101000 A
b10101000 V
b10101000 d
b10101000 h
b10100100 @
b10100100 g
b10100100 i
b10100100 D
b10100100 b
b10100100 e
1!
#168000
0!
#170000
b10101100 C
b10101100 o
b10101100 B
b10101100 k
b10101100 l
b10101100 A
b10101100 V
b10101100 d
b10101100 h
b10101000 @
b10101000 g
b10101000 i
b10101000 D
b10101000 b
b10101000 e
1!
#172000
0!
#174000
b10110000 C
b10110000 o
b10110000 B
b10110000 k
b10110000 l
b10110000 A
b10110000 V
b10110000 d
b10110000 h
b10101100 @
b10101100 g
b10101100 i
b10101100 D
b10101100 b
b10101100 e
1!
#176000
0!
#178000
b10110100 C
b10110100 o
b10110100 B
b10110100 k
b10110100 l
b10110100 A
b10110100 V
b10110100 d
b10110100 h
b10110000 @
b10110000 g
b10110000 i
b10110000 D
b10110000 b
b10110000 e
1!
#180000
0!
#182000
b10111000 C
b10111000 o
b10111000 B
b10111000 k
b10111000 l
b10111000 A
b10111000 V
b10111000 d
b10111000 h
b10110100 @
b10110100 g
b10110100 i
b10110100 D
b10110100 b
b10110100 e
1!
#184000
0!
#186000
b10111100 C
b10111100 o
b10111100 B
b10111100 k
b10111100 l
b10111100 A
b10111100 V
b10111100 d
b10111100 h
b10111000 @
b10111000 g
b10111000 i
b10111000 D
b10111000 b
b10111000 e
1!
#188000
0!
#190000
b11000000 C
b11000000 o
b11000000 B
b11000000 k
b11000000 l
b11000000 A
b11000000 V
b11000000 d
b11000000 h
b10111100 @
b10111100 g
b10111100 i
b10111100 D
b10111100 b
b10111100 e
1!
#192000
0!
#194000
b11000100 C
b11000100 o
b11000100 B
b11000100 k
b11000100 l
b11000100 A
b11000100 V
b11000100 d
b11000100 h
b11000000 @
b11000000 g
b11000000 i
b11000000 D
b11000000 b
b11000000 e
1!
#196000
0!
#198000
b11001000 C
b11001000 o
b11001000 B
b11001000 k
b11001000 l
b11001000 A
b11001000 V
b11001000 d
b11001000 h
b11000100 @
b11000100 g
b11000100 i
b11000100 D
b11000100 b
b11000100 e
1!
#200000
0!
#202000
b11001100 C
b11001100 o
b11001100 B
b11001100 k
b11001100 l
b11001100 A
b11001100 V
b11001100 d
b11001100 h
b11001000 @
b11001000 g
b11001000 i
b11001000 D
b11001000 b
b11001000 e
1!
#204000
0!
#206000
b11010000 C
b11010000 o
b11010000 B
b11010000 k
b11010000 l
b11010000 A
b11010000 V
b11010000 d
b11010000 h
b11001100 @
b11001100 g
b11001100 i
b11001100 D
b11001100 b
b11001100 e
1!
#208000
0!
#210000
b11010100 C
b11010100 o
b11010100 B
b11010100 k
b11010100 l
b11010100 A
b11010100 V
b11010100 d
b11010100 h
b11010000 @
b11010000 g
b11010000 i
b11010000 D
b11010000 b
b11010000 e
1!
#212000
0!
#214000
b11011000 C
b11011000 o
b11011000 B
b11011000 k
b11011000 l
b11011000 A
b11011000 V
b11011000 d
b11011000 h
b11010100 @
b11010100 g
b11010100 i
b11010100 D
b11010100 b
b11010100 e
1!
#216000
0!
#218000
b11011100 C
b11011100 o
b11011100 B
b11011100 k
b11011100 l
b11011100 A
b11011100 V
b11011100 d
b11011100 h
b11011000 @
b11011000 g
b11011000 i
b11011000 D
b11011000 b
b11011000 e
1!
#220000
0!
#222000
b11100000 C
b11100000 o
b11100000 B
b11100000 k
b11100000 l
b11100000 A
b11100000 V
b11100000 d
b11100000 h
b11011100 @
b11011100 g
b11011100 i
b11011100 D
b11011100 b
b11011100 e
1!
#224000
0!
#226000
b11100100 C
b11100100 o
b11100100 B
b11100100 k
b11100100 l
b11100100 A
b11100100 V
b11100100 d
b11100100 h
b11100000 @
b11100000 g
b11100000 i
b11100000 D
b11100000 b
b11100000 e
1!
#228000
0!
#230000
b11101000 C
b11101000 o
b11101000 B
b11101000 k
b11101000 l
b11101000 A
b11101000 V
b11101000 d
b11101000 h
b11100100 @
b11100100 g
b11100100 i
b11100100 D
b11100100 b
b11100100 e
1!
#232000
0!
#234000
b11101100 C
b11101100 o
b11101100 B
b11101100 k
b11101100 l
b11101100 A
b11101100 V
b11101100 d
b11101100 h
b11101000 @
b11101000 g
b11101000 i
b11101000 D
b11101000 b
b11101000 e
1!
#236000
0!
#238000
b11110000 C
b11110000 o
b11110000 B
b11110000 k
b11110000 l
b11110000 A
b11110000 V
b11110000 d
b11110000 h
b11101100 @
b11101100 g
b11101100 i
b11101100 D
b11101100 b
b11101100 e
1!
#240000
0!
#242000
b11110100 C
b11110100 o
b11110100 B
b11110100 k
b11110100 l
b11110100 A
b11110100 V
b11110100 d
b11110100 h
b11110000 @
b11110000 g
b11110000 i
b11110000 D
b11110000 b
b11110000 e
1!
#244000
0!
#246000
b11111000 C
b11111000 o
b11111000 B
b11111000 k
b11111000 l
b11111000 A
b11111000 V
b11111000 d
b11111000 h
b11110100 @
b11110100 g
b11110100 i
b11110100 D
b11110100 b
b11110100 e
1!
#248000
0!
#250000
b11111100 C
b11111100 o
b11111100 B
b11111100 k
b11111100 l
b11111100 A
b11111100 V
b11111100 d
b11111100 h
b11111000 @
b11111000 g
b11111000 i
b11111000 D
b11111000 b
b11111000 e
1!
#252000
0!
#254000
b100000000 C
b100000000 o
b100000000 B
b100000000 k
b100000000 l
b100000000 A
b100000000 V
b100000000 d
b100000000 h
b11111100 @
b11111100 g
b11111100 i
b11111100 D
b11111100 b
b11111100 e
1!
#256000
0!
#258000
1(
b10 <
b10 O
b10 Z
1/
b0 `
b1 W
b10001 [
b11 ;
b11 K
b11 \
b1 '
b1 S
b1 T
b10 =
b10 I
b10 x
b100000100 C
b100000100 o
b110011 2
b110011 X
b0 7
b0 M
b0 N
b0 8
b0 L
b1 $
b1 H
b1 -
b1 R
b1 n
b1 r
b1 .
b1 q
b10 +
b10 _
b10 t
b10 v
b10 ,
b10 s
b10000 1
b10000 p
b110011 F
b100000100 B
b100000100 k
b100000100 l
b1000001000100000110011 %
b1000001000100000110011 E
b100000100 A
b100000100 V
b100000100 d
b100000100 h
b100000000 @
b100000000 g
b100000000 i
b100000000 D
b100000000 b
b100000000 e
1!
#260000
0!
#262000
0(
b11111111 `
b100 W
b1 >
b1 J
b1 P
b1000 N
b11111111111111111111111111111100 ;
b11111111111111111111111111111100 K
b11111111111111111111111111111100 \
b100 '
b100 S
b100 T
b1000 =
b1000 I
b1000 x
b100001000 C
b100001000 o
b100000 7
b100000 M
b100 $
b100 H
b100 -
b100 R
b100 n
b100 r
b100 .
b100 q
b1000 +
b1000 _
b1000 t
b1000 v
b1000 ,
b1000 s
b10001 1
b10001 p
b100001000 B
b100001000 k
b100001000 l
b1000000100000100000100010110011 %
b1000000100000100000100010110011 E
b100001000 A
b100001000 V
b100001000 d
b100001000 h
b100000100 @
b100000100 g
b100000100 i
b100000100 D
b100000100 b
b100000100 e
1!
#264000
0!
#266000
1?
b1 `
1(
b11 W
b10 >
b10 J
b10 P
b110 ;
b110 K
b110 \
b11 '
b11 S
b11 T
b101 =
b101 I
b101 x
b100001100 C
b100001100 o
b0 7
b0 M
b100 N
b100 8
b100 L
b11 $
b11 H
b11 -
b11 R
b11 n
b11 r
b11 .
b11 q
b101 +
b101 _
b101 t
b101 v
b101 ,
b101 s
b10010 1
b10010 p
b100001100 B
b100001100 k
b100001100 l
b10100011100100100110011 %
b10100011100100100110011 E
b100001100 A
b100001100 V
b100001100 d
b100001100 h
b100001000 @
b100001000 g
b100001000 i
b100001000 D
b100001000 b
b100001000 e
1!
#268000
0!
#270000
0?
b111 ;
b111 K
b111 \
b11 >
b11 J
b11 P
b100010000 C
b100010000 o
b110 N
b110 8
b110 L
b10011 1
b10011 p
b100010000 B
b100010000 k
b100010000 l
b10100011110100110110011 %
b10100011110100110110011 E
b100010000 A
b100010000 V
b100010000 d
b100010000 h
b100001100 @
b100001100 g
b100001100 i
b100001100 D
b100001100 b
b100001100 e
1!
#272000
0!
#274000
b0 `
b1 ;
b1 K
b1 \
b101 W
b100 >
b100 J
b100 P
b101 '
b101 S
b101 T
b11 =
b11 I
b11 x
b100010100 C
b100010100 o
b111 N
b111 8
b111 L
b101 $
b101 H
b101 -
b101 R
b101 n
b101 r
b101 .
b101 q
b11 +
b11 _
b11 t
b11 v
b11 ,
b11 s
b10100 1
b10100 p
b100010100 B
b100010100 k
b100010100 l
b1100101111101000110011 %
b1100101111101000110011 E
b100010100 A
b100010100 V
b100010100 d
b100010100 h
b100010000 @
b100010000 g
b100010000 i
b100010000 D
b100010000 b
b100010000 e
1!
#276000
0!
#278000
b11111110 `
b1 W
b1 >
b1 J
b1 P
b11111111111111111111111111111011 ;
b11111111111111111111111111111011 K
b11111111111111111111111111111011 \
b1 '
b1 S
b1 T
b110 =
b110 I
b110 x
b100011000 C
b100011000 o
b100000 7
b100000 M
b1000 N
b0 8
b0 L
b1 $
b1 H
b1 -
b1 R
b1 n
b1 r
b1 .
b1 q
b110 +
b110 _
b110 t
b110 v
b110 ,
b110 s
b10101 1
b10101 p
b100011000 B
b100011000 k
b100011000 l
b1000000011000001000101010110011 %
b1000000011000001000101010110011 E
b100011000 A
b100011000 V
b100011000 d
b100011000 h
b100010100 @
b100010100 g
b100010100 i
b100010100 D
b100010100 b
b100010100 e
1!
#280000
0!
#282000
0(
b11 <
b11 O
b11 Z
1:
b0 `
b0 W
b11011 [
b0 >
b0 J
b0 P
b0 N
0?
b0 ;
b0 K
b0 \
b0 '
b0 S
b0 T
b0 =
b0 I
b0 x
b100011100 C
b100011100 o
b10011 2
b10011 X
b0 7
b0 M
b0 $
b0 H
b0 -
b0 R
b0 n
b0 r
b0 .
b0 q
b0 +
b0 _
b0 t
b0 v
b0 ,
b0 s
b0 1
b0 p
b10011 F
b100011100 B
b100011100 k
b100011100 l
b10011 %
b10011 E
b100011100 A
b100011100 V
b100011100 d
b100011100 h
b100011000 @
b100011000 g
b100011000 i
b100011000 D
b100011000 b
b100011000 e
1!
#284000
b0 $
b0 H
b0 -
b0 R
b0 n
b0 r
b0 +
b0 _
b0 t
b0 v
0!
#286000
b100100000 C
b100100000 o
b100100000 B
b100100000 k
b100100000 l
b100100000 A
b100100000 V
b100100000 d
b100100000 h
b100011100 @
b100011100 g
b100011100 i
b100011100 D
b100011100 b
b100011100 e
1!
#288000
b0 $
b0 H
b0 -
b0 R
b0 n
b0 r
b0 +
b0 _
b0 t
b0 v
0!
#290000
b100100100 C
b100100100 o
b100100100 B
b100100100 k
b100100100 l
b100100100 A
b100100100 V
b100100100 d
b100100100 h
b100100000 @
b100100000 g
b100100000 i
b100100000 D
b100100000 b
b100100000 e
1!
#292000
b0 $
b0 H
b0 -
b0 R
b0 n
b0 r
b0 +
b0 _
b0 t
b0 v
0!
